{
    "m_SGVersion": 3,
    "m_Type": "UnityEditor.ShaderGraph.GraphData",
    "m_ObjectId": "6a48f61637a1451180fd1e732ab36af1",
    "m_Properties": [
        {
            "m_Id": "d0e45ed5c7034fcebe78c034543ee688"
        },
        {
            "m_Id": "9a63e4684c014d898b3863e9b7cebd8f"
        },
        {
            "m_Id": "c52301a910bd4547a13961d884d116d2"
        },
        {
            "m_Id": "020c419cd5a3471f82ceed3b345418b1"
        }
    ],
    "m_Keywords": [],
    "m_Dropdowns": [],
    "m_CategoryData": [
        {
            "m_Id": "b1f148bfa1994e1f8e6d3d983fc9bb70"
        }
    ],
    "m_Nodes": [
        {
            "m_Id": "6deb96e82aa146bba2a4cf212bd46e28"
        },
        {
            "m_Id": "784627895d9f4bf1927054bed651a098"
        },
        {
            "m_Id": "1b9726fd8d1d4b5ca511e2cfb69e5e44"
        },
        {
            "m_Id": "45b836f91ac24ddb8b5e47361ffd863c"
        },
        {
            "m_Id": "11da9914cfff43c78821f22299f7a008"
        },
        {
            "m_Id": "e1d75041f53c44939f57cfe7cce750be"
        },
        {
            "m_Id": "013e6609fee948f8b92e29fccf6c8fed"
        },
        {
            "m_Id": "4223bba2d23f4d2d94da4f9234ba595b"
        },
        {
            "m_Id": "eb0fcfc54a7540319fb8622e96b2e3c0"
        },
        {
            "m_Id": "b92cf9689b2141788f603b12cb6cc6ef"
        },
        {
            "m_Id": "e06ccead52064ec5b7ad0029aa2e972d"
        },
        {
            "m_Id": "e6d5816786d7454d99fbd4271d692d83"
        },
        {
            "m_Id": "eb23717a68e94a038990f7b1b0d7d8d4"
        },
        {
            "m_Id": "3702b4999fae40d481920e9f7c2e7848"
        },
        {
            "m_Id": "7d2d0ce4af9e4cd48e87115228e691dc"
        },
        {
            "m_Id": "8fd21346248e4dadb54ce93d53343097"
        },
        {
            "m_Id": "2c237d8a3a2343efb337317268201015"
        },
        {
            "m_Id": "22216893787542daaf63067c456e2a47"
        },
        {
            "m_Id": "c48fc71a21eb4b709fa9a54b54d043b6"
        },
        {
            "m_Id": "5b508902869e4621adf4cee432b1c9c3"
        },
        {
            "m_Id": "b37ac30e25314a6b98a409b8dbb12b3a"
        },
        {
            "m_Id": "3c01cbe762394382b321112314fd6546"
        },
        {
            "m_Id": "90b05e23079c4c90a642a77dfa587a97"
        },
        {
            "m_Id": "df8b7754df264243a9483a9939beb6cc"
        },
        {
            "m_Id": "b0813c358d5240ec9cbf9c95075cb696"
        },
        {
            "m_Id": "1960fa5feb164ac3a47b5e405304e61e"
        },
        {
            "m_Id": "57f781fb901f4448a1de3ecf049d6aa2"
        },
        {
            "m_Id": "336f8bafe4e143118bdff6ae5b6c192e"
        },
        {
            "m_Id": "7c4d36db98ce4b1e8fb0a9b6ed008e4a"
        },
        {
            "m_Id": "254ee6cda2fd4e3f8f0add67758198a2"
        }
    ],
    "m_GroupDatas": [],
    "m_StickyNoteDatas": [],
    "m_Edges": [
        {
            "m_OutputSlot": {
                "m_Node": {
                    "m_Id": "013e6609fee948f8b92e29fccf6c8fed"
                },
                "m_SlotId": 3
            },
            "m_InputSlot": {
                "m_Node": {
                    "m_Id": "784627895d9f4bf1927054bed651a098"
                },
                "m_SlotId": 2
            }
        },
        {
            "m_OutputSlot": {
                "m_Node": {
                    "m_Id": "11da9914cfff43c78821f22299f7a008"
                },
                "m_SlotId": 3
            },
            "m_InputSlot": {
                "m_Node": {
                    "m_Id": "254ee6cda2fd4e3f8f0add67758198a2"
                },
                "m_SlotId": 4
            }
        },
        {
            "m_OutputSlot": {
                "m_Node": {
                    "m_Id": "1960fa5feb164ac3a47b5e405304e61e"
                },
                "m_SlotId": 3
            },
            "m_InputSlot": {
                "m_Node": {
                    "m_Id": "254ee6cda2fd4e3f8f0add67758198a2"
                },
                "m_SlotId": 1
            }
        },
        {
            "m_OutputSlot": {
                "m_Node": {
                    "m_Id": "1b9726fd8d1d4b5ca511e2cfb69e5e44"
                },
                "m_SlotId": 3
            },
            "m_InputSlot": {
                "m_Node": {
                    "m_Id": "254ee6cda2fd4e3f8f0add67758198a2"
                },
                "m_SlotId": 3
            }
        },
        {
            "m_OutputSlot": {
                "m_Node": {
                    "m_Id": "22216893787542daaf63067c456e2a47"
                },
                "m_SlotId": 0
            },
            "m_InputSlot": {
                "m_Node": {
                    "m_Id": "11da9914cfff43c78821f22299f7a008"
                },
                "m_SlotId": 2
            }
        },
        {
            "m_OutputSlot": {
                "m_Node": {
                    "m_Id": "22216893787542daaf63067c456e2a47"
                },
                "m_SlotId": 0
            },
            "m_InputSlot": {
                "m_Node": {
                    "m_Id": "1960fa5feb164ac3a47b5e405304e61e"
                },
                "m_SlotId": 2
            }
        },
        {
            "m_OutputSlot": {
                "m_Node": {
                    "m_Id": "22216893787542daaf63067c456e2a47"
                },
                "m_SlotId": 0
            },
            "m_InputSlot": {
                "m_Node": {
                    "m_Id": "1b9726fd8d1d4b5ca511e2cfb69e5e44"
                },
                "m_SlotId": 2
            }
        },
        {
            "m_OutputSlot": {
                "m_Node": {
                    "m_Id": "22216893787542daaf63067c456e2a47"
                },
                "m_SlotId": 0
            },
            "m_InputSlot": {
                "m_Node": {
                    "m_Id": "3c01cbe762394382b321112314fd6546"
                },
                "m_SlotId": 2
            }
        },
        {
            "m_OutputSlot": {
                "m_Node": {
                    "m_Id": "22216893787542daaf63067c456e2a47"
                },
                "m_SlotId": 0
            },
            "m_InputSlot": {
                "m_Node": {
                    "m_Id": "4223bba2d23f4d2d94da4f9234ba595b"
                },
                "m_SlotId": 2
            }
        },
        {
            "m_OutputSlot": {
                "m_Node": {
                    "m_Id": "22216893787542daaf63067c456e2a47"
                },
                "m_SlotId": 0
            },
            "m_InputSlot": {
                "m_Node": {
                    "m_Id": "57f781fb901f4448a1de3ecf049d6aa2"
                },
                "m_SlotId": 2
            }
        },
        {
            "m_OutputSlot": {
                "m_Node": {
                    "m_Id": "22216893787542daaf63067c456e2a47"
                },
                "m_SlotId": 0
            },
            "m_InputSlot": {
                "m_Node": {
                    "m_Id": "b37ac30e25314a6b98a409b8dbb12b3a"
                },
                "m_SlotId": 2
            }
        },
        {
            "m_OutputSlot": {
                "m_Node": {
                    "m_Id": "22216893787542daaf63067c456e2a47"
                },
                "m_SlotId": 0
            },
            "m_InputSlot": {
                "m_Node": {
                    "m_Id": "e1d75041f53c44939f57cfe7cce750be"
                },
                "m_SlotId": 2
            }
        },
        {
            "m_OutputSlot": {
                "m_Node": {
                    "m_Id": "254ee6cda2fd4e3f8f0add67758198a2"
                },
                "m_SlotId": 0
            },
            "m_InputSlot": {
                "m_Node": {
                    "m_Id": "784627895d9f4bf1927054bed651a098"
                },
                "m_SlotId": 1
            }
        },
        {
            "m_OutputSlot": {
                "m_Node": {
                    "m_Id": "2c237d8a3a2343efb337317268201015"
                },
                "m_SlotId": 0
            },
            "m_InputSlot": {
                "m_Node": {
                    "m_Id": "11da9914cfff43c78821f22299f7a008"
                },
                "m_SlotId": 1
            }
        },
        {
            "m_OutputSlot": {
                "m_Node": {
                    "m_Id": "2c237d8a3a2343efb337317268201015"
                },
                "m_SlotId": 0
            },
            "m_InputSlot": {
                "m_Node": {
                    "m_Id": "1960fa5feb164ac3a47b5e405304e61e"
                },
                "m_SlotId": 1
            }
        },
        {
            "m_OutputSlot": {
                "m_Node": {
                    "m_Id": "2c237d8a3a2343efb337317268201015"
                },
                "m_SlotId": 0
            },
            "m_InputSlot": {
                "m_Node": {
                    "m_Id": "1b9726fd8d1d4b5ca511e2cfb69e5e44"
                },
                "m_SlotId": 1
            }
        },
        {
            "m_OutputSlot": {
                "m_Node": {
                    "m_Id": "2c237d8a3a2343efb337317268201015"
                },
                "m_SlotId": 0
            },
            "m_InputSlot": {
                "m_Node": {
                    "m_Id": "3c01cbe762394382b321112314fd6546"
                },
                "m_SlotId": 1
            }
        },
        {
            "m_OutputSlot": {
                "m_Node": {
                    "m_Id": "2c237d8a3a2343efb337317268201015"
                },
                "m_SlotId": 0
            },
            "m_InputSlot": {
                "m_Node": {
                    "m_Id": "4223bba2d23f4d2d94da4f9234ba595b"
                },
                "m_SlotId": 1
            }
        },
        {
            "m_OutputSlot": {
                "m_Node": {
                    "m_Id": "2c237d8a3a2343efb337317268201015"
                },
                "m_SlotId": 0
            },
            "m_InputSlot": {
                "m_Node": {
                    "m_Id": "57f781fb901f4448a1de3ecf049d6aa2"
                },
                "m_SlotId": 1
            }
        },
        {
            "m_OutputSlot": {
                "m_Node": {
                    "m_Id": "2c237d8a3a2343efb337317268201015"
                },
                "m_SlotId": 0
            },
            "m_InputSlot": {
                "m_Node": {
                    "m_Id": "b37ac30e25314a6b98a409b8dbb12b3a"
                },
                "m_SlotId": 1
            }
        },
        {
            "m_OutputSlot": {
                "m_Node": {
                    "m_Id": "2c237d8a3a2343efb337317268201015"
                },
                "m_SlotId": 0
            },
            "m_InputSlot": {
                "m_Node": {
                    "m_Id": "e1d75041f53c44939f57cfe7cce750be"
                },
                "m_SlotId": 1
            }
        },
        {
            "m_OutputSlot": {
                "m_Node": {
                    "m_Id": "336f8bafe4e143118bdff6ae5b6c192e"
                },
                "m_SlotId": 2
            },
            "m_InputSlot": {
                "m_Node": {
                    "m_Id": "11da9914cfff43c78821f22299f7a008"
                },
                "m_SlotId": 0
            }
        },
        {
            "m_OutputSlot": {
                "m_Node": {
                    "m_Id": "3702b4999fae40d481920e9f7c2e7848"
                },
                "m_SlotId": 2
            },
            "m_InputSlot": {
                "m_Node": {
                    "m_Id": "3c01cbe762394382b321112314fd6546"
                },
                "m_SlotId": 0
            }
        },
        {
            "m_OutputSlot": {
                "m_Node": {
                    "m_Id": "3c01cbe762394382b321112314fd6546"
                },
                "m_SlotId": 3
            },
            "m_InputSlot": {
                "m_Node": {
                    "m_Id": "b0813c358d5240ec9cbf9c95075cb696"
                },
                "m_SlotId": 4
            }
        },
        {
            "m_OutputSlot": {
                "m_Node": {
                    "m_Id": "4223bba2d23f4d2d94da4f9234ba595b"
                },
                "m_SlotId": 3
            },
            "m_InputSlot": {
                "m_Node": {
                    "m_Id": "b0813c358d5240ec9cbf9c95075cb696"
                },
                "m_SlotId": 1
            }
        },
        {
            "m_OutputSlot": {
                "m_Node": {
                    "m_Id": "45b836f91ac24ddb8b5e47361ffd863c"
                },
                "m_SlotId": 1
            },
            "m_InputSlot": {
                "m_Node": {
                    "m_Id": "013e6609fee948f8b92e29fccf6c8fed"
                },
                "m_SlotId": 0
            }
        },
        {
            "m_OutputSlot": {
                "m_Node": {
                    "m_Id": "57f781fb901f4448a1de3ecf049d6aa2"
                },
                "m_SlotId": 3
            },
            "m_InputSlot": {
                "m_Node": {
                    "m_Id": "254ee6cda2fd4e3f8f0add67758198a2"
                },
                "m_SlotId": 2
            }
        },
        {
            "m_OutputSlot": {
                "m_Node": {
                    "m_Id": "5b508902869e4621adf4cee432b1c9c3"
                },
                "m_SlotId": 0
            },
            "m_InputSlot": {
                "m_Node": {
                    "m_Id": "eb23717a68e94a038990f7b1b0d7d8d4"
                },
                "m_SlotId": 0
            }
        },
        {
            "m_OutputSlot": {
                "m_Node": {
                    "m_Id": "784627895d9f4bf1927054bed651a098"
                },
                "m_SlotId": 3
            },
            "m_InputSlot": {
                "m_Node": {
                    "m_Id": "6deb96e82aa146bba2a4cf212bd46e28"
                },
                "m_SlotId": 1
            }
        },
        {
            "m_OutputSlot": {
                "m_Node": {
                    "m_Id": "7c4d36db98ce4b1e8fb0a9b6ed008e4a"
                },
                "m_SlotId": 2
            },
            "m_InputSlot": {
                "m_Node": {
                    "m_Id": "1b9726fd8d1d4b5ca511e2cfb69e5e44"
                },
                "m_SlotId": 0
            }
        },
        {
            "m_OutputSlot": {
                "m_Node": {
                    "m_Id": "7d2d0ce4af9e4cd48e87115228e691dc"
                },
                "m_SlotId": 2
            },
            "m_InputSlot": {
                "m_Node": {
                    "m_Id": "57f781fb901f4448a1de3ecf049d6aa2"
                },
                "m_SlotId": 0
            }
        },
        {
            "m_OutputSlot": {
                "m_Node": {
                    "m_Id": "8fd21346248e4dadb54ce93d53343097"
                },
                "m_SlotId": 2
            },
            "m_InputSlot": {
                "m_Node": {
                    "m_Id": "1960fa5feb164ac3a47b5e405304e61e"
                },
                "m_SlotId": 0
            }
        },
        {
            "m_OutputSlot": {
                "m_Node": {
                    "m_Id": "90b05e23079c4c90a642a77dfa587a97"
                },
                "m_SlotId": 2
            },
            "m_InputSlot": {
                "m_Node": {
                    "m_Id": "b37ac30e25314a6b98a409b8dbb12b3a"
                },
                "m_SlotId": 0
            }
        },
        {
            "m_OutputSlot": {
                "m_Node": {
                    "m_Id": "b0813c358d5240ec9cbf9c95075cb696"
                },
                "m_SlotId": 0
            },
            "m_InputSlot": {
                "m_Node": {
                    "m_Id": "784627895d9f4bf1927054bed651a098"
                },
                "m_SlotId": 0
            }
        },
        {
            "m_OutputSlot": {
                "m_Node": {
                    "m_Id": "b37ac30e25314a6b98a409b8dbb12b3a"
                },
                "m_SlotId": 3
            },
            "m_InputSlot": {
                "m_Node": {
                    "m_Id": "b0813c358d5240ec9cbf9c95075cb696"
                },
                "m_SlotId": 3
            }
        },
        {
            "m_OutputSlot": {
                "m_Node": {
                    "m_Id": "b92cf9689b2141788f603b12cb6cc6ef"
                },
                "m_SlotId": 2
            },
            "m_InputSlot": {
                "m_Node": {
                    "m_Id": "eb23717a68e94a038990f7b1b0d7d8d4"
                },
                "m_SlotId": 1
            }
        },
        {
            "m_OutputSlot": {
                "m_Node": {
                    "m_Id": "c48fc71a21eb4b709fa9a54b54d043b6"
                },
                "m_SlotId": 0
            },
            "m_InputSlot": {
                "m_Node": {
                    "m_Id": "b92cf9689b2141788f603b12cb6cc6ef"
                },
                "m_SlotId": 0
            }
        },
        {
            "m_OutputSlot": {
                "m_Node": {
                    "m_Id": "df8b7754df264243a9483a9939beb6cc"
                },
                "m_SlotId": 2
            },
            "m_InputSlot": {
                "m_Node": {
                    "m_Id": "e1d75041f53c44939f57cfe7cce750be"
                },
                "m_SlotId": 0
            }
        },
        {
            "m_OutputSlot": {
                "m_Node": {
                    "m_Id": "e06ccead52064ec5b7ad0029aa2e972d"
                },
                "m_SlotId": 1
            },
            "m_InputSlot": {
                "m_Node": {
                    "m_Id": "3702b4999fae40d481920e9f7c2e7848"
                },
                "m_SlotId": 0
            }
        },
        {
            "m_OutputSlot": {
                "m_Node": {
                    "m_Id": "e06ccead52064ec5b7ad0029aa2e972d"
                },
                "m_SlotId": 1
            },
            "m_InputSlot": {
                "m_Node": {
                    "m_Id": "4223bba2d23f4d2d94da4f9234ba595b"
                },
                "m_SlotId": 0
            }
        },
        {
            "m_OutputSlot": {
                "m_Node": {
                    "m_Id": "e06ccead52064ec5b7ad0029aa2e972d"
                },
                "m_SlotId": 1
            },
            "m_InputSlot": {
                "m_Node": {
                    "m_Id": "90b05e23079c4c90a642a77dfa587a97"
                },
                "m_SlotId": 0
            }
        },
        {
            "m_OutputSlot": {
                "m_Node": {
                    "m_Id": "e06ccead52064ec5b7ad0029aa2e972d"
                },
                "m_SlotId": 1
            },
            "m_InputSlot": {
                "m_Node": {
                    "m_Id": "df8b7754df264243a9483a9939beb6cc"
                },
                "m_SlotId": 0
            }
        },
        {
            "m_OutputSlot": {
                "m_Node": {
                    "m_Id": "e1d75041f53c44939f57cfe7cce750be"
                },
                "m_SlotId": 3
            },
            "m_InputSlot": {
                "m_Node": {
                    "m_Id": "b0813c358d5240ec9cbf9c95075cb696"
                },
                "m_SlotId": 2
            }
        },
        {
            "m_OutputSlot": {
                "m_Node": {
                    "m_Id": "e6d5816786d7454d99fbd4271d692d83"
                },
                "m_SlotId": 1
            },
            "m_InputSlot": {
                "m_Node": {
                    "m_Id": "336f8bafe4e143118bdff6ae5b6c192e"
                },
                "m_SlotId": 0
            }
        },
        {
            "m_OutputSlot": {
                "m_Node": {
                    "m_Id": "e6d5816786d7454d99fbd4271d692d83"
                },
                "m_SlotId": 1
            },
            "m_InputSlot": {
                "m_Node": {
                    "m_Id": "7c4d36db98ce4b1e8fb0a9b6ed008e4a"
                },
                "m_SlotId": 0
            }
        },
        {
            "m_OutputSlot": {
                "m_Node": {
                    "m_Id": "e6d5816786d7454d99fbd4271d692d83"
                },
                "m_SlotId": 1
            },
            "m_InputSlot": {
                "m_Node": {
                    "m_Id": "7d2d0ce4af9e4cd48e87115228e691dc"
                },
                "m_SlotId": 0
            }
        },
        {
            "m_OutputSlot": {
                "m_Node": {
                    "m_Id": "e6d5816786d7454d99fbd4271d692d83"
                },
                "m_SlotId": 1
            },
            "m_InputSlot": {
                "m_Node": {
                    "m_Id": "8fd21346248e4dadb54ce93d53343097"
                },
                "m_SlotId": 0
            }
        },
        {
            "m_OutputSlot": {
                "m_Node": {
                    "m_Id": "eb0fcfc54a7540319fb8622e96b2e3c0"
                },
                "m_SlotId": 0
            },
            "m_InputSlot": {
                "m_Node": {
                    "m_Id": "b92cf9689b2141788f603b12cb6cc6ef"
                },
                "m_SlotId": 1
            }
        },
        {
            "m_OutputSlot": {
                "m_Node": {
                    "m_Id": "eb23717a68e94a038990f7b1b0d7d8d4"
                },
                "m_SlotId": 2
            },
            "m_InputSlot": {
                "m_Node": {
                    "m_Id": "45b836f91ac24ddb8b5e47361ffd863c"
                },
                "m_SlotId": 0
            }
        },
        {
            "m_OutputSlot": {
                "m_Node": {
                    "m_Id": "eb23717a68e94a038990f7b1b0d7d8d4"
                },
                "m_SlotId": 2
            },
            "m_InputSlot": {
                "m_Node": {
                    "m_Id": "e06ccead52064ec5b7ad0029aa2e972d"
                },
                "m_SlotId": 0
            }
        },
        {
            "m_OutputSlot": {
                "m_Node": {
                    "m_Id": "eb23717a68e94a038990f7b1b0d7d8d4"
                },
                "m_SlotId": 2
            },
            "m_InputSlot": {
                "m_Node": {
                    "m_Id": "e6d5816786d7454d99fbd4271d692d83"
                },
                "m_SlotId": 0
            }
        }
    ],
    "m_VertexContext": {
        "m_Position": {
            "x": 0.0,
            "y": 0.0
        },
        "m_Blocks": []
    },
    "m_FragmentContext": {
        "m_Position": {
            "x": 0.0,
            "y": 0.0
        },
        "m_Blocks": []
    },
    "m_PreviewData": {
        "serializedMesh": {
            "m_SerializedMesh": "{\"mesh\":{\"instanceID\":0}}",
            "m_Guid": ""
        },
        "preventRotation": false
    },
    "m_Path": "Sub Graphs",
    "m_GraphPrecision": 1,
    "m_PreviewMode": 2,
    "m_OutputNode": {
        "m_Id": "6deb96e82aa146bba2a4cf212bd46e28"
    },
    "m_ActiveTargets": []
}

{
    "m_SGVersion": 0,
    "m_Type": "UnityEditor.ShaderGraph.RemapNode",
    "m_ObjectId": "013e6609fee948f8b92e29fccf6c8fed",
    "m_Group": {
        "m_Id": ""
    },
    "m_Name": "Remap",
    "m_DrawState": {
        "m_Expanded": true,
        "m_Position": {
            "serializedVersion": "2",
            "x": 941.9998168945313,
            "y": -296.66680908203127,
            "width": 209.33343505859376,
            "height": 328.0
        }
    },
    "m_Slots": [
        {
            "m_Id": "ab58db9b472d4e309589a39627acd2cb"
        },
        {
            "m_Id": "155866d0d9294e0d9c3214d7ff8123f3"
        },
        {
            "m_Id": "781fe43921f34a49a06da9574a00eb3d"
        },
        {
            "m_Id": "1858d9b493484eb0bfca0fbe61c12c7d"
        }
    ],
    "synonyms": [],
    "m_Precision": 0,
    "m_PreviewExpanded": true,
    "m_DismissedVersion": 0,
    "m_PreviewMode": 0,
    "m_CustomColors": {
        "m_SerializableColors": []
    }
}

{
    "m_SGVersion": 1,
    "m_Type": "UnityEditor.ShaderGraph.Internal.Vector1ShaderProperty",
    "m_ObjectId": "020c419cd5a3471f82ceed3b345418b1",
    "m_Guid": {
        "m_GuidSerialized": "3c5ad856-179b-4357-84f1-26386fd9a7d2"
    },
    "m_Name": "timeOffset",
    "m_DefaultRefNameVersion": 1,
    "m_RefNameGeneratedByDisplayName": "timeOffset",
    "m_DefaultReferenceName": "_timeOffset",
    "m_OverrideReferenceName": "",
    "m_GeneratePropertyBlock": true,
    "m_UseCustomSlotLabel": false,
    "m_CustomSlotLabel": "",
    "m_DismissedVersion": 0,
    "m_Precision": 0,
    "overrideHLSLDeclaration": false,
    "hlslDeclarationOverride": 0,
    "m_Hidden": false,
    "m_Value": 0.0,
    "m_FloatType": 0,
    "m_RangeValues": {
        "x": 0.0,
        "y": 1.0
    }
}

{
    "m_SGVersion": 0,
    "m_Type": "UnityEditor.ShaderGraph.Vector1MaterialSlot",
    "m_ObjectId": "05b909c08eaf4752a8c165bd9c4ef794",
    "m_Id": 3,
    "m_DisplayName": "Out",
    "m_SlotType": 1,
    "m_Hidden": false,
    "m_ShaderOutputName": "Out",
    "m_StageCapability": 3,
    "m_Value": 0.0,
    "m_DefaultValue": 0.0,
    "m_Labels": []
}

{
    "m_SGVersion": 0,
    "m_Type": "UnityEditor.ShaderGraph.DynamicVectorMaterialSlot",
    "m_ObjectId": "07028d031072417da0eece3cf8c0065b",
    "m_Id": 2,
    "m_DisplayName": "Out",
    "m_SlotType": 1,
    "m_Hidden": false,
    "m_ShaderOutputName": "Out",
    "m_StageCapability": 3,
    "m_Value": {
        "x": 0.0,
        "y": 0.0,
        "z": 0.0,
        "w": 0.0
    },
    "m_DefaultValue": {
        "x": 0.0,
        "y": 0.0,
        "z": 0.0,
        "w": 0.0
    }
}

{
    "m_SGVersion": 0,
    "m_Type": "UnityEditor.ShaderGraph.Vector1MaterialSlot",
    "m_ObjectId": "07d169780d0e4f17aac4fb69e0f5bac3",
    "m_Id": 3,
    "m_DisplayName": "Out",
    "m_SlotType": 1,
    "m_Hidden": false,
    "m_ShaderOutputName": "Out",
    "m_StageCapability": 3,
    "m_Value": 0.0,
    "m_DefaultValue": 0.0,
    "m_Labels": []
}

{
    "m_SGVersion": 0,
    "m_Type": "UnityEditor.ShaderGraph.Vector1MaterialSlot",
    "m_ObjectId": "0bc29c98a09447d68bf14b51d68b0501",
    "m_Id": 2,
    "m_DisplayName": "Max",
    "m_SlotType": 0,
    "m_Hidden": false,
    "m_ShaderOutputName": "Max",
    "m_StageCapability": 3,
    "m_Value": 9999.0,
    "m_DefaultValue": 1.0,
    "m_Labels": []
}

{
    "m_SGVersion": 0,
    "m_Type": "UnityEditor.ShaderGraph.Vector1MaterialSlot",
    "m_ObjectId": "0ee91ae0927a4f32b472f90e336626ee",
    "m_Id": 4,
    "m_DisplayName": "W",
    "m_SlotType": 0,
    "m_Hidden": false,
    "m_ShaderOutputName": "W",
    "m_StageCapability": 3,
    "m_Value": 0.0,
    "m_DefaultValue": 0.0,
    "m_Labels": [
        "W"
    ]
}

{
    "m_SGVersion": 0,
    "m_Type": "UnityEditor.ShaderGraph.DynamicVectorMaterialSlot",
    "m_ObjectId": "10d85f5fb5f54d7780b040705159e4bf",
    "m_Id": 0,
    "m_DisplayName": "A",
    "m_SlotType": 0,
    "m_Hidden": false,
    "m_ShaderOutputName": "A",
    "m_StageCapability": 3,
    "m_Value": {
        "x": 0.0,
        "y": 0.0,
        "z": 0.0,
        "w": 0.0
    },
    "m_DefaultValue": {
        "x": 0.0,
        "y": 0.0,
        "z": 0.0,
        "w": 0.0
    }
}

{
    "m_SGVersion": 0,
    "m_Type": "UnityEditor.ShaderGraph.Vector1MaterialSlot",
    "m_ObjectId": "11c97565d8a24081b02b8092d4d04089",
    "m_Id": 2,
    "m_DisplayName": "Max",
    "m_SlotType": 0,
    "m_Hidden": false,
    "m_ShaderOutputName": "Max",
    "m_StageCapability": 3,
    "m_Value": 9999.0,
    "m_DefaultValue": 1.0,
    "m_Labels": []
}

{
    "m_SGVersion": 0,
    "m_Type": "UnityEditor.ShaderGraph.RandomRangeNode",
    "m_ObjectId": "11da9914cfff43c78821f22299f7a008",
    "m_Group": {
        "m_Id": ""
    },
    "m_Name": "Random Range",
    "m_DrawState": {
        "m_Expanded": true,
        "m_Position": {
            "serializedVersion": "2",
            "x": 131.3333740234375,
            "y": 1656.0,
            "width": 209.33343505859376,
            "height": 328.0003662109375
        }
    },
    "m_Slots": [
        {
            "m_Id": "92446506be794e9490f859b679b13336"
        },
        {
            "m_Id": "8ae4158607a84eb1a2f1cb908e624457"
        },
        {
            "m_Id": "b21390b543ba4970a6bb15093e9a4b6a"
        },
        {
            "m_Id": "f553ba036c284c36a11dcfc7d59b3ae7"
        }
    ],
    "synonyms": [],
    "m_Precision": 0,
    "m_PreviewExpanded": true,
    "m_DismissedVersion": 0,
    "m_PreviewMode": 0,
    "m_CustomColors": {
        "m_SerializableColors": []
    }
}

{
    "m_SGVersion": 0,
    "m_Type": "UnityEditor.ShaderGraph.DynamicVectorMaterialSlot",
    "m_ObjectId": "1393206c848a4c569bb7725baa0bf377",
    "m_Id": 0,
    "m_DisplayName": "A",
    "m_SlotType": 0,
    "m_Hidden": false,
    "m_ShaderOutputName": "A",
    "m_StageCapability": 3,
    "m_Value": {
        "x": 0.0,
        "y": 0.0,
        "z": 0.0,
        "w": 0.0
    },
    "m_DefaultValue": {
        "x": 0.0,
        "y": 0.0,
        "z": 0.0,
        "w": 0.0
    }
}

{
    "m_SGVersion": 0,
    "m_Type": "UnityEditor.ShaderGraph.Vector2MaterialSlot",
    "m_ObjectId": "155866d0d9294e0d9c3214d7ff8123f3",
    "m_Id": 1,
    "m_DisplayName": "In Min Max",
    "m_SlotType": 0,
    "m_Hidden": false,
    "m_ShaderOutputName": "InMinMax",
    "m_StageCapability": 3,
    "m_Value": {
        "x": -1.0,
        "y": 1.0
    },
    "m_DefaultValue": {
        "x": 0.0,
        "y": 0.0
    },
    "m_Labels": []
}

{
    "m_SGVersion": 0,
    "m_Type": "UnityEditor.ShaderGraph.DynamicVectorMaterialSlot",
    "m_ObjectId": "15675a8f41394bd4994e76e1bf628fe5",
    "m_Id": 2,
    "m_DisplayName": "T",
    "m_SlotType": 0,
    "m_Hidden": false,
    "m_ShaderOutputName": "T",
    "m_StageCapability": 3,
    "m_Value": {
        "x": 0.5,
        "y": 0.5,
        "z": 0.0,
        "w": 0.0
    },
    "m_DefaultValue": {
        "x": 0.0,
        "y": 0.0,
        "z": 0.0,
        "w": 0.0
    }
}

{
    "m_SGVersion": 0,
    "m_Type": "UnityEditor.ShaderGraph.Vector1MaterialSlot",
    "m_ObjectId": "17a4cb5f63fe4af991e1fc716c209b90",
    "m_Id": 2,
    "m_DisplayName": "Max",
    "m_SlotType": 0,
    "m_Hidden": false,
    "m_ShaderOutputName": "Max",
    "m_StageCapability": 3,
    "m_Value": 9999.0,
    "m_DefaultValue": 1.0,
    "m_Labels": []
}

{
    "m_SGVersion": 0,
    "m_Type": "UnityEditor.ShaderGraph.DynamicVectorMaterialSlot",
    "m_ObjectId": "1858d9b493484eb0bfca0fbe61c12c7d",
    "m_Id": 3,
    "m_DisplayName": "Out",
    "m_SlotType": 1,
    "m_Hidden": false,
    "m_ShaderOutputName": "Out",
    "m_StageCapability": 3,
    "m_Value": {
        "x": 0.0,
        "y": 0.0,
        "z": 0.0,
        "w": 0.0
    },
    "m_DefaultValue": {
        "x": 0.0,
        "y": 0.0,
        "z": 0.0,
        "w": 0.0
    }
}

{
    "m_SGVersion": 0,
    "m_Type": "UnityEditor.ShaderGraph.RandomRangeNode",
    "m_ObjectId": "1960fa5feb164ac3a47b5e405304e61e",
    "m_Group": {
        "m_Id": ""
    },
    "m_Name": "Random Range",
    "m_DrawState": {
        "m_Expanded": true,
        "m_Position": {
            "serializedVersion": "2",
            "x": 131.3331756591797,
            "y": 398.0,
            "width": 209.33338928222657,
            "height": 328.0
        }
    },
    "m_Slots": [
        {
            "m_Id": "95dda54091744b4b996a0b22b04e4b73"
        },
        {
            "m_Id": "d52628f8fb5c41c38917950befe58212"
        },
        {
            "m_Id": "17a4cb5f63fe4af991e1fc716c209b90"
        },
        {
            "m_Id": "05b909c08eaf4752a8c165bd9c4ef794"
        }
    ],
    "synonyms": [],
    "m_Precision": 0,
    "m_PreviewExpanded": true,
    "m_DismissedVersion": 0,
    "m_PreviewMode": 0,
    "m_CustomColors": {
        "m_SerializableColors": []
    }
}

{
    "m_SGVersion": 0,
    "m_Type": "UnityEditor.ShaderGraph.Vector2MaterialSlot",
    "m_ObjectId": "1b0056ab452346d9a96e1bf73bfd1cf7",
    "m_Id": 0,
    "m_DisplayName": "Seed",
    "m_SlotType": 0,
    "m_Hidden": false,
    "m_ShaderOutputName": "Seed",
    "m_StageCapability": 3,
    "m_Value": {
        "x": 0.0,
        "y": 0.0
    },
    "m_DefaultValue": {
        "x": 0.0,
        "y": 0.0
    },
    "m_Labels": []
}

{
    "m_SGVersion": 0,
    "m_Type": "UnityEditor.ShaderGraph.RandomRangeNode",
    "m_ObjectId": "1b9726fd8d1d4b5ca511e2cfb69e5e44",
    "m_Group": {
        "m_Id": ""
    },
    "m_Name": "Random Range",
    "m_DrawState": {
        "m_Expanded": true,
        "m_Position": {
            "serializedVersion": "2",
            "x": 131.3333740234375,
            "y": 1252.6671142578125,
            "width": 209.33343505859376,
            "height": 327.999755859375
        }
    },
    "m_Slots": [
        {
            "m_Id": "34e1f6d8b998466c9acd81a05d0aafdc"
        },
        {
            "m_Id": "a1546d64391347868e1adc7ffed28423"
        },
        {
            "m_Id": "3d1451ad59e5427b9a5fc4c91a18fd66"
        },
        {
            "m_Id": "2a22af4573d647fa9d51f7d5466d2fc4"
        }
    ],
    "synonyms": [],
    "m_Precision": 0,
    "m_PreviewExpanded": true,
    "m_DismissedVersion": 0,
    "m_PreviewMode": 0,
    "m_CustomColors": {
        "m_SerializableColors": []
    }
}

{
    "m_SGVersion": 0,
    "m_Type": "UnityEditor.ShaderGraph.PropertyNode",
    "m_ObjectId": "22216893787542daaf63067c456e2a47",
    "m_Group": {
        "m_Id": ""
    },
    "m_Name": "Property",
    "m_DrawState": {
        "m_Expanded": true,
        "m_Position": {
            "serializedVersion": "2",
            "x": -306.6666259765625,
            "y": -181.33331298828126,
            "width": 130.6666717529297,
            "height": 36.00004577636719
        }
    },
    "m_Slots": [
        {
            "m_Id": "d0ee942393734ea0a8688698596dc6ab"
        }
    ],
    "synonyms": [],
    "m_Precision": 0,
    "m_PreviewExpanded": true,
    "m_DismissedVersion": 0,
    "m_PreviewMode": 0,
    "m_CustomColors": {
        "m_SerializableColors": []
    },
    "m_Property": {
        "m_Id": "9a63e4684c014d898b3863e9b7cebd8f"
    }
}

{
    "m_SGVersion": 0,
    "m_Type": "UnityEditor.ShaderGraph.DynamicVectorMaterialSlot",
    "m_ObjectId": "23b1cc3992ce46aea2a05c6712b43bff",
    "m_Id": 2,
    "m_DisplayName": "Out",
    "m_SlotType": 1,
    "m_Hidden": false,
    "m_ShaderOutputName": "Out",
    "m_StageCapability": 3,
    "m_Value": {
        "x": 0.0,
        "y": 0.0,
        "z": 0.0,
        "w": 0.0
    },
    "m_DefaultValue": {
        "x": 0.0,
        "y": 0.0,
        "z": 0.0,
        "w": 0.0
    }
}

{
    "m_SGVersion": 0,
    "m_Type": "UnityEditor.ShaderGraph.Vector4Node",
    "m_ObjectId": "254ee6cda2fd4e3f8f0add67758198a2",
    "m_Group": {
        "m_Id": ""
    },
    "m_Name": "Vector 4",
    "m_DrawState": {
        "m_Expanded": true,
        "m_Position": {
            "serializedVersion": "2",
            "x": 778.6233520507813,
            "y": 1169.1075439453125,
            "width": 0.0,
            "height": 0.0
        }
    },
    "m_Slots": [
        {
            "m_Id": "95e50a16dfd44e34a4ac7e51e39e3e2a"
        },
        {
            "m_Id": "c2f4deec88f54e319877a1df597a21b0"
        },
        {
            "m_Id": "80d2cb57ab184c77bf712e8b1b0314f9"
        },
        {
            "m_Id": "2d452a9e067f4f6dba2a080fe0663268"
        },
        {
            "m_Id": "575259b347274fd79d803b3700c91b17"
        }
    ],
    "synonyms": [
        "4",
        "v4",
        "vec4",
        "float4"
    ],
    "m_Precision": 0,
    "m_PreviewExpanded": true,
    "m_DismissedVersion": 0,
    "m_PreviewMode": 0,
    "m_CustomColors": {
        "m_SerializableColors": []
    },
    "m_Value": {
        "x": 0.0,
        "y": 0.0,
        "z": 0.0,
        "w": 0.0
    }
}

{
    "m_SGVersion": 0,
    "m_Type": "UnityEditor.ShaderGraph.Vector2MaterialSlot",
    "m_ObjectId": "255c0674e6e34186a2099d42f33e01de",
    "m_Id": 0,
    "m_DisplayName": "Seed",
    "m_SlotType": 0,
    "m_Hidden": false,
    "m_ShaderOutputName": "Seed",
    "m_StageCapability": 3,
    "m_Value": {
        "x": 0.0,
        "y": 0.0
    },
    "m_DefaultValue": {
        "x": 0.0,
        "y": 0.0
    },
    "m_Labels": []
}

{
    "m_SGVersion": 0,
    "m_Type": "UnityEditor.ShaderGraph.DynamicVectorMaterialSlot",
    "m_ObjectId": "258447eaaf7540fab5bb5b8aac7f7ca0",
    "m_Id": 0,
    "m_DisplayName": "A",
    "m_SlotType": 0,
    "m_Hidden": false,
    "m_ShaderOutputName": "A",
    "m_StageCapability": 3,
    "m_Value": {
        "x": 0.0,
        "y": 0.0,
        "z": 0.0,
        "w": 0.0
    },
    "m_DefaultValue": {
        "x": 0.0,
        "y": 0.0,
        "z": 0.0,
        "w": 0.0
    }
}

{
    "m_SGVersion": 0,
    "m_Type": "UnityEditor.ShaderGraph.Vector1MaterialSlot",
    "m_ObjectId": "266d0f43e7ca40379a3ecd8025df4f23",
    "m_Id": 1,
    "m_DisplayName": "Min",
    "m_SlotType": 0,
    "m_Hidden": false,
    "m_ShaderOutputName": "Min",
    "m_StageCapability": 3,
    "m_Value": -9999.0,
    "m_DefaultValue": 0.0,
    "m_Labels": []
}

{
    "m_SGVersion": 0,
    "m_Type": "UnityEditor.ShaderGraph.Vector1MaterialSlot",
    "m_ObjectId": "298d950d5d2e4d03baadca40a5e9d56a",
    "m_Id": 3,
    "m_DisplayName": "Delta Time",
    "m_SlotType": 1,
    "m_Hidden": false,
    "m_ShaderOutputName": "Delta Time",
    "m_StageCapability": 3,
    "m_Value": 0.0,
    "m_DefaultValue": 0.0,
    "m_Labels": []
}

{
    "m_SGVersion": 0,
    "m_Type": "UnityEditor.ShaderGraph.Vector1MaterialSlot",
    "m_ObjectId": "2a22af4573d647fa9d51f7d5466d2fc4",
    "m_Id": 3,
    "m_DisplayName": "Out",
    "m_SlotType": 1,
    "m_Hidden": false,
    "m_ShaderOutputName": "Out",
    "m_StageCapability": 3,
    "m_Value": 0.0,
    "m_DefaultValue": 0.0,
    "m_Labels": []
}

{
    "m_SGVersion": 0,
    "m_Type": "UnityEditor.ShaderGraph.PropertyNode",
    "m_ObjectId": "2c237d8a3a2343efb337317268201015",
    "m_Group": {
        "m_Id": ""
    },
    "m_Name": "Property",
    "m_DrawState": {
        "m_Expanded": true,
        "m_Position": {
            "serializedVersion": "2",
            "x": -303.33331298828127,
            "y": -217.33328247070313,
            "width": 127.33335876464844,
            "height": 35.999969482421878
        }
    },
    "m_Slots": [
        {
            "m_Id": "68860608804f43b9be21f6ccd96256d0"
        }
    ],
    "synonyms": [],
    "m_Precision": 0,
    "m_PreviewExpanded": true,
    "m_DismissedVersion": 0,
    "m_PreviewMode": 0,
    "m_CustomColors": {
        "m_SerializableColors": []
    },
    "m_Property": {
        "m_Id": "d0e45ed5c7034fcebe78c034543ee688"
    }
}

{
    "m_SGVersion": 0,
    "m_Type": "UnityEditor.ShaderGraph.Vector1MaterialSlot",
    "m_ObjectId": "2d452a9e067f4f6dba2a080fe0663268",
    "m_Id": 4,
    "m_DisplayName": "W",
    "m_SlotType": 0,
    "m_Hidden": false,
    "m_ShaderOutputName": "W",
    "m_StageCapability": 3,
    "m_Value": 0.0,
    "m_DefaultValue": 0.0,
    "m_Labels": [
        "W"
    ]
}

{
    "m_SGVersion": 0,
    "m_Type": "UnityEditor.ShaderGraph.DynamicVectorMaterialSlot",
    "m_ObjectId": "2f742234558d4f0a9883c2a420e93bdc",
    "m_Id": 1,
    "m_DisplayName": "B",
    "m_SlotType": 0,
    "m_Hidden": false,
    "m_ShaderOutputName": "B",
    "m_StageCapability": 3,
    "m_Value": {
        "x": 0.4000000059604645,
        "y": 0.0,
        "z": 0.0,
        "w": 0.0
    },
    "m_DefaultValue": {
        "x": 0.0,
        "y": 0.0,
        "z": 0.0,
        "w": 0.0
    }
}

{
    "m_SGVersion": 0,
    "m_Type": "UnityEditor.ShaderGraph.AddNode",
    "m_ObjectId": "336f8bafe4e143118bdff6ae5b6c192e",
    "m_Group": {
        "m_Id": ""
    },
    "m_Name": "Add",
    "m_DrawState": {
        "m_Expanded": true,
        "m_Position": {
            "serializedVersion": "2",
            "x": -534.6668090820313,
            "y": 1063.3333740234375,
            "width": 209.3333740234375,
            "height": 303.9998779296875
        }
    },
    "m_Slots": [
        {
            "m_Id": "c5a8dbd6b9d24417929a02881f9f827d"
        },
        {
            "m_Id": "ecb53548d446488ab29bdffd8f58ea48"
        },
        {
            "m_Id": "357d665e3bd0457bb8d479ea6449fba9"
        }
    ],
    "synonyms": [
        "addition",
        "sum",
        "plus"
    ],
    "m_Precision": 0,
    "m_PreviewExpanded": true,
    "m_DismissedVersion": 0,
    "m_PreviewMode": 0,
    "m_CustomColors": {
        "m_SerializableColors": []
    }
}

{
    "m_SGVersion": 0,
    "m_Type": "UnityEditor.ShaderGraph.DynamicVectorMaterialSlot",
    "m_ObjectId": "340f8b6c41d54e26840d1af6a3117e2d",
    "m_Id": 1,
    "m_DisplayName": "B",
    "m_SlotType": 0,
    "m_Hidden": false,
    "m_ShaderOutputName": "B",
    "m_StageCapability": 3,
    "m_Value": {
        "x": 0.30000001192092898,
        "y": 0.0,
        "z": 0.0,
        "w": 0.0
    },
    "m_DefaultValue": {
        "x": 0.0,
        "y": 0.0,
        "z": 0.0,
        "w": 0.0
    }
}

{
    "m_SGVersion": 0,
    "m_Type": "UnityEditor.ShaderGraph.Vector1MaterialSlot",
    "m_ObjectId": "341f8417c9804962b7ad2a8d0354247d",
    "m_Id": 0,
    "m_DisplayName": "speed",
    "m_SlotType": 1,
    "m_Hidden": false,
    "m_ShaderOutputName": "Out",
    "m_StageCapability": 3,
    "m_Value": 0.0,
    "m_DefaultValue": 0.0,
    "m_Labels": []
}

{
    "m_SGVersion": 0,
    "m_Type": "UnityEditor.ShaderGraph.Vector2MaterialSlot",
    "m_ObjectId": "34e1f6d8b998466c9acd81a05d0aafdc",
    "m_Id": 0,
    "m_DisplayName": "Seed",
    "m_SlotType": 0,
    "m_Hidden": false,
    "m_ShaderOutputName": "Seed",
    "m_StageCapability": 3,
    "m_Value": {
        "x": 0.0,
        "y": 0.0
    },
    "m_DefaultValue": {
        "x": 0.0,
        "y": 0.0
    },
    "m_Labels": []
}

{
    "m_SGVersion": 0,
    "m_Type": "UnityEditor.ShaderGraph.DynamicVectorMaterialSlot",
    "m_ObjectId": "357d665e3bd0457bb8d479ea6449fba9",
    "m_Id": 2,
    "m_DisplayName": "Out",
    "m_SlotType": 1,
    "m_Hidden": false,
    "m_ShaderOutputName": "Out",
    "m_StageCapability": 3,
    "m_Value": {
        "x": 0.0,
        "y": 0.0,
        "z": 0.0,
        "w": 0.0
    },
    "m_DefaultValue": {
        "x": 0.0,
        "y": 0.0,
        "z": 0.0,
        "w": 0.0
    }
}

{
    "m_SGVersion": 0,
    "m_Type": "UnityEditor.ShaderGraph.DynamicVectorMaterialSlot",
    "m_ObjectId": "35ebacf7c01744099343e63e9f931313",
    "m_Id": 1,
    "m_DisplayName": "Out",
    "m_SlotType": 1,
    "m_Hidden": false,
    "m_ShaderOutputName": "Out",
    "m_StageCapability": 3,
    "m_Value": {
        "x": 0.0,
        "y": 0.0,
        "z": 0.0,
        "w": 0.0
    },
    "m_DefaultValue": {
        "x": 0.0,
        "y": 0.0,
        "z": 0.0,
        "w": 0.0
    }
}

{
    "m_SGVersion": 0,
    "m_Type": "UnityEditor.ShaderGraph.AddNode",
    "m_ObjectId": "3702b4999fae40d481920e9f7c2e7848",
    "m_Group": {
        "m_Id": ""
    },
    "m_Name": "Add",
    "m_DrawState": {
        "m_Expanded": true,
        "m_Position": {
            "serializedVersion": "2",
            "x": -534.6666870117188,
            "y": -558.0,
            "width": 209.33328247070313,
            "height": 304.0000305175781
        }
    },
    "m_Slots": [
        {
            "m_Id": "258447eaaf7540fab5bb5b8aac7f7ca0"
        },
        {
            "m_Id": "340f8b6c41d54e26840d1af6a3117e2d"
        },
        {
            "m_Id": "ac6ffadcc76845df85db0088b8589030"
        }
    ],
    "synonyms": [
        "addition",
        "sum",
        "plus"
    ],
    "m_Precision": 0,
    "m_PreviewExpanded": true,
    "m_DismissedVersion": 0,
    "m_PreviewMode": 0,
    "m_CustomColors": {
        "m_SerializableColors": []
    }
}

{
    "m_SGVersion": 0,
    "m_Type": "UnityEditor.ShaderGraph.Vector1MaterialSlot",
    "m_ObjectId": "3b5ba8d62c1a4d2b8e0839390a7c8da4",
    "m_Id": 3,
    "m_DisplayName": "Z",
    "m_SlotType": 0,
    "m_Hidden": false,
    "m_ShaderOutputName": "Z",
    "m_StageCapability": 3,
    "m_Value": 0.0,
    "m_DefaultValue": 0.0,
    "m_Labels": [
        "Z"
    ]
}

{
    "m_SGVersion": 0,
    "m_Type": "UnityEditor.ShaderGraph.RandomRangeNode",
    "m_ObjectId": "3c01cbe762394382b321112314fd6546",
    "m_Group": {
        "m_Id": ""
    },
    "m_Name": "Random Range",
    "m_DrawState": {
        "m_Expanded": true,
        "m_Position": {
            "serializedVersion": "2",
            "x": 131.3333282470703,
            "y": -793.3333740234375,
            "width": 209.3332977294922,
            "height": 328.0001220703125
        }
    },
    "m_Slots": [
        {
            "m_Id": "de0d5ce2d9c64c6582090a3f9aac7bde"
        },
        {
            "m_Id": "f1e56d7fb49448a5982e805bac3480ad"
        },
        {
            "m_Id": "e0871f58757b439186726b83f5c80d34"
        },
        {
            "m_Id": "a6aa27dc4b1f419ab8bb7c9ce18310e0"
        }
    ],
    "synonyms": [],
    "m_Precision": 0,
    "m_PreviewExpanded": true,
    "m_DismissedVersion": 0,
    "m_PreviewMode": 0,
    "m_CustomColors": {
        "m_SerializableColors": []
    }
}

{
    "m_SGVersion": 0,
    "m_Type": "UnityEditor.ShaderGraph.Vector1MaterialSlot",
    "m_ObjectId": "3d1451ad59e5427b9a5fc4c91a18fd66",
    "m_Id": 2,
    "m_DisplayName": "Max",
    "m_SlotType": 0,
    "m_Hidden": false,
    "m_ShaderOutputName": "Max",
    "m_StageCapability": 3,
    "m_Value": 9999.0,
    "m_DefaultValue": 1.0,
    "m_Labels": []
}

{
    "m_SGVersion": 0,
    "m_Type": "UnityEditor.ShaderGraph.RandomRangeNode",
    "m_ObjectId": "4223bba2d23f4d2d94da4f9234ba595b",
    "m_Group": {
        "m_Id": ""
    },
    "m_Name": "Random Range",
    "m_DrawState": {
        "m_Expanded": true,
        "m_Position": {
            "serializedVersion": "2",
            "x": 131.3333282470703,
            "y": -2030.6666259765625,
            "width": 209.3332977294922,
            "height": 328.0
        }
    },
    "m_Slots": [
        {
            "m_Id": "255c0674e6e34186a2099d42f33e01de"
        },
        {
            "m_Id": "6b77862f5aa342c391b4dc7b10c5fdb1"
        },
        {
            "m_Id": "0bc29c98a09447d68bf14b51d68b0501"
        },
        {
            "m_Id": "e5354194511a4eec950e52ac4c3d1106"
        }
    ],
    "synonyms": [],
    "m_Precision": 0,
    "m_PreviewExpanded": true,
    "m_DismissedVersion": 0,
    "m_PreviewMode": 0,
    "m_CustomColors": {
        "m_SerializableColors": []
    }
}

{
    "m_SGVersion": 0,
    "m_Type": "UnityEditor.ShaderGraph.TriangleWaveNode",
    "m_ObjectId": "45b836f91ac24ddb8b5e47361ffd863c",
    "m_Group": {
        "m_Id": ""
    },
    "m_Name": "Triangle Wave",
    "m_DrawState": {
        "m_Expanded": true,
        "m_Position": {
            "serializedVersion": "2",
            "x": 526.666748046875,
            "y": -296.66680908203127,
            "width": 209.333251953125,
            "height": 280.00006103515627
        }
    },
    "m_Slots": [
        {
            "m_Id": "bd0e4d86745f4eab8456d1bf094a2cf9"
        },
        {
            "m_Id": "4bd62ba6c338444ba14094410d0c13d6"
        }
    ],
    "synonyms": [
        "sawtooth wave"
    ],
    "m_Precision": 0,
    "m_PreviewExpanded": true,
    "m_DismissedVersion": 0,
    "m_PreviewMode": 0,
    "m_CustomColors": {
        "m_SerializableColors": []
    }
}

{
    "m_SGVersion": 0,
    "m_Type": "UnityEditor.ShaderGraph.DynamicVectorMaterialSlot",
    "m_ObjectId": "4bd62ba6c338444ba14094410d0c13d6",
    "m_Id": 1,
    "m_DisplayName": "Out",
    "m_SlotType": 1,
    "m_Hidden": false,
    "m_ShaderOutputName": "Out",
    "m_StageCapability": 3,
    "m_Value": {
        "x": 0.0,
        "y": 0.0,
        "z": 0.0,
        "w": 0.0
    },
    "m_DefaultValue": {
        "x": 0.0,
        "y": 0.0,
        "z": 0.0,
        "w": 0.0
    }
}

{
    "m_SGVersion": 0,
    "m_Type": "UnityEditor.ShaderGraph.DynamicValueMaterialSlot",
    "m_ObjectId": "52c9997f9609475c9a70ee087df31686",
    "m_Id": 0,
    "m_DisplayName": "A",
    "m_SlotType": 0,
    "m_Hidden": false,
    "m_ShaderOutputName": "A",
    "m_StageCapability": 3,
    "m_Value": {
        "e00": 0.0,
        "e01": 0.0,
        "e02": 0.0,
        "e03": 0.0,
        "e10": 0.0,
        "e11": 0.0,
        "e12": 0.0,
        "e13": 0.0,
        "e20": 0.0,
        "e21": 0.0,
        "e22": 0.0,
        "e23": 0.0,
        "e30": 0.0,
        "e31": 0.0,
        "e32": 0.0,
        "e33": 0.0
    },
    "m_DefaultValue": {
        "e00": 1.0,
        "e01": 0.0,
        "e02": 0.0,
        "e03": 0.0,
        "e10": 0.0,
        "e11": 1.0,
        "e12": 0.0,
        "e13": 0.0,
        "e20": 0.0,
        "e21": 0.0,
        "e22": 1.0,
        "e23": 0.0,
        "e30": 0.0,
        "e31": 0.0,
        "e32": 0.0,
        "e33": 1.0
    }
}

{
    "m_SGVersion": 0,
    "m_Type": "UnityEditor.ShaderGraph.Vector1MaterialSlot",
    "m_ObjectId": "541c0a495d42425bb4695c73888c311b",
    "m_Id": 3,
    "m_DisplayName": "Out",
    "m_SlotType": 1,
    "m_Hidden": false,
    "m_ShaderOutputName": "Out",
    "m_StageCapability": 3,
    "m_Value": 0.0,
    "m_DefaultValue": 0.0,
    "m_Labels": []
}

{
    "m_SGVersion": 0,
    "m_Type": "UnityEditor.ShaderGraph.Vector2MaterialSlot",
    "m_ObjectId": "56c2bc45f27d4706a8a49dccfe65fa11",
    "m_Id": 0,
    "m_DisplayName": "Seed",
    "m_SlotType": 0,
    "m_Hidden": false,
    "m_ShaderOutputName": "Seed",
    "m_StageCapability": 3,
    "m_Value": {
        "x": 0.0,
        "y": 0.0
    },
    "m_DefaultValue": {
        "x": 0.0,
        "y": 0.0
    },
    "m_Labels": []
}

{
    "m_SGVersion": 0,
    "m_Type": "UnityEditor.ShaderGraph.Vector4MaterialSlot",
    "m_ObjectId": "575259b347274fd79d803b3700c91b17",
    "m_Id": 0,
    "m_DisplayName": "Out",
    "m_SlotType": 1,
    "m_Hidden": false,
    "m_ShaderOutputName": "Out",
    "m_StageCapability": 3,
    "m_Value": {
        "x": 0.0,
        "y": 0.0,
        "z": 0.0,
        "w": 0.0
    },
    "m_DefaultValue": {
        "x": 0.0,
        "y": 0.0,
        "z": 0.0,
        "w": 0.0
    },
    "m_Labels": []
}

{
    "m_SGVersion": 0,
    "m_Type": "UnityEditor.ShaderGraph.RandomRangeNode",
    "m_ObjectId": "57f781fb901f4448a1de3ecf049d6aa2",
    "m_Group": {
        "m_Id": ""
    },
    "m_Name": "Random Range",
    "m_DrawState": {
        "m_Expanded": true,
        "m_Position": {
            "serializedVersion": "2",
            "x": 131.3331756591797,
            "y": 801.3333129882813,
            "width": 209.33338928222657,
            "height": 327.99981689453127
        }
    },
    "m_Slots": [
        {
            "m_Id": "56c2bc45f27d4706a8a49dccfe65fa11"
        },
        {
            "m_Id": "266d0f43e7ca40379a3ecd8025df4f23"
        },
        {
            "m_Id": "5ad79d2dfaf24532be00744f8d9258a1"
        },
        {
            "m_Id": "541c0a495d42425bb4695c73888c311b"
        }
    ],
    "synonyms": [],
    "m_Precision": 0,
    "m_PreviewExpanded": true,
    "m_DismissedVersion": 0,
    "m_PreviewMode": 0,
    "m_CustomColors": {
        "m_SerializableColors": []
    }
}

{
    "m_SGVersion": 0,
    "m_Type": "UnityEditor.ShaderGraph.Vector1MaterialSlot",
    "m_ObjectId": "5ad79d2dfaf24532be00744f8d9258a1",
    "m_Id": 2,
    "m_DisplayName": "Max",
    "m_SlotType": 0,
    "m_Hidden": false,
    "m_ShaderOutputName": "Max",
    "m_StageCapability": 3,
    "m_Value": 9999.0,
    "m_DefaultValue": 1.0,
    "m_Labels": []
}

{
    "m_SGVersion": 0,
    "m_Type": "UnityEditor.ShaderGraph.PropertyNode",
    "m_ObjectId": "5b508902869e4621adf4cee432b1c9c3",
    "m_Group": {
        "m_Id": ""
    },
    "m_Name": "Property",
    "m_DrawState": {
        "m_Expanded": true,
        "m_Position": {
            "serializedVersion": "2",
            "x": -1811.33349609375,
            "y": -384.6666259765625,
            "width": 131.3333740234375,
            "height": 35.999969482421878
        }
    },
    "m_Slots": [
        {
            "m_Id": "69956dd6f155481b880e53a8d1449a6b"
        }
    ],
    "synonyms": [],
    "m_Precision": 0,
    "m_PreviewExpanded": true,
    "m_DismissedVersion": 0,
    "m_PreviewMode": 0,
    "m_CustomColors": {
        "m_SerializableColors": []
    },
    "m_Property": {
        "m_Id": "020c419cd5a3471f82ceed3b345418b1"
    }
}

{
    "m_SGVersion": 0,
    "m_Type": "UnityEditor.ShaderGraph.DynamicVectorMaterialSlot",
    "m_ObjectId": "5ec0ac8d291a4a219c2ac826e8f3710d",
    "m_Id": 1,
    "m_DisplayName": "B",
    "m_SlotType": 0,
    "m_Hidden": false,
    "m_ShaderOutputName": "B",
    "m_StageCapability": 3,
    "m_Value": {
        "x": 0.6000000238418579,
        "y": 0.0,
        "z": 0.0,
        "w": 0.0
    },
    "m_DefaultValue": {
        "x": 0.0,
        "y": 0.0,
        "z": 0.0,
        "w": 0.0
    }
}

{
    "m_SGVersion": 0,
    "m_Type": "UnityEditor.ShaderGraph.Vector1MaterialSlot",
    "m_ObjectId": "66c48ad69ddb47b3bf5dc22b9f7a7274",
    "m_Id": 3,
    "m_DisplayName": "Out",
    "m_SlotType": 1,
    "m_Hidden": false,
    "m_ShaderOutputName": "Out",
    "m_StageCapability": 3,
    "m_Value": 0.0,
    "m_DefaultValue": 0.0,
    "m_Labels": []
}

{
    "m_SGVersion": 0,
    "m_Type": "UnityEditor.ShaderGraph.Vector1MaterialSlot",
    "m_ObjectId": "68860608804f43b9be21f6ccd96256d0",
    "m_Id": 0,
    "m_DisplayName": "minOffset",
    "m_SlotType": 1,
    "m_Hidden": false,
    "m_ShaderOutputName": "Out",
    "m_StageCapability": 3,
    "m_Value": 0.0,
    "m_DefaultValue": 0.0,
    "m_Labels": []
}

{
    "m_SGVersion": 0,
    "m_Type": "UnityEditor.ShaderGraph.Vector1MaterialSlot",
    "m_ObjectId": "69956dd6f155481b880e53a8d1449a6b",
    "m_Id": 0,
    "m_DisplayName": "timeOffset",
    "m_SlotType": 1,
    "m_Hidden": false,
    "m_ShaderOutputName": "Out",
    "m_StageCapability": 3,
    "m_Value": 0.0,
    "m_DefaultValue": 0.0,
    "m_Labels": []
}

{
    "m_SGVersion": 0,
    "m_Type": "UnityEditor.ShaderGraph.Vector1MaterialSlot",
    "m_ObjectId": "69dfbee85a4040b6bfca65fef33b8595",
    "m_Id": 1,
    "m_DisplayName": "Min",
    "m_SlotType": 0,
    "m_Hidden": false,
    "m_ShaderOutputName": "Min",
    "m_StageCapability": 3,
    "m_Value": -9999.0,
    "m_DefaultValue": 0.0,
    "m_Labels": []
}

{
    "m_SGVersion": 0,
    "m_Type": "UnityEditor.ShaderGraph.DynamicVectorMaterialSlot",
    "m_ObjectId": "6b0a38420f21442e890ce6154a422128",
    "m_Id": 1,
    "m_DisplayName": "Out",
    "m_SlotType": 1,
    "m_Hidden": false,
    "m_ShaderOutputName": "Out",
    "m_StageCapability": 3,
    "m_Value": {
        "x": 0.0,
        "y": 0.0,
        "z": 0.0,
        "w": 0.0
    },
    "m_DefaultValue": {
        "x": 0.0,
        "y": 0.0,
        "z": 0.0,
        "w": 0.0
    }
}

{
    "m_SGVersion": 0,
    "m_Type": "UnityEditor.ShaderGraph.Vector1MaterialSlot",
    "m_ObjectId": "6b77862f5aa342c391b4dc7b10c5fdb1",
    "m_Id": 1,
    "m_DisplayName": "Min",
    "m_SlotType": 0,
    "m_Hidden": false,
    "m_ShaderOutputName": "Min",
    "m_StageCapability": 3,
    "m_Value": -9999.0,
    "m_DefaultValue": 0.0,
    "m_Labels": []
}

{
    "m_SGVersion": 0,
    "m_Type": "UnityEditor.ShaderGraph.SubGraphOutputNode",
    "m_ObjectId": "6deb96e82aa146bba2a4cf212bd46e28",
    "m_Group": {
        "m_Id": ""
    },
    "m_Name": "Output",
    "m_DrawState": {
        "m_Expanded": true,
        "m_Position": {
            "serializedVersion": "2",
            "x": 2334.0,
            "y": -15.333328247070313,
            "width": 90.666748046875,
            "height": 78.66664123535156
        }
    },
    "m_Slots": [
        {
            "m_Id": "feb56806846541ff8656ab0f3ff90731"
        }
    ],
    "synonyms": [],
    "m_Precision": 0,
    "m_PreviewExpanded": true,
    "m_DismissedVersion": 0,
    "m_PreviewMode": 0,
    "m_CustomColors": {
        "m_SerializableColors": []
    },
    "IsFirstSlotValid": true
}

{
    "m_SGVersion": 0,
    "m_Type": "UnityEditor.ShaderGraph.DynamicVectorMaterialSlot",
    "m_ObjectId": "6e9c896f7700433f801d8c4a30a0c5d7",
    "m_Id": 2,
    "m_DisplayName": "Out",
    "m_SlotType": 1,
    "m_Hidden": false,
    "m_ShaderOutputName": "Out",
    "m_StageCapability": 3,
    "m_Value": {
        "x": 0.0,
        "y": 0.0,
        "z": 0.0,
        "w": 0.0
    },
    "m_DefaultValue": {
        "x": 0.0,
        "y": 0.0,
        "z": 0.0,
        "w": 0.0
    }
}

{
    "m_SGVersion": 0,
    "m_Type": "UnityEditor.ShaderGraph.DynamicVectorMaterialSlot",
    "m_ObjectId": "70a7791bc20a490287460760369e3753",
    "m_Id": 1,
    "m_DisplayName": "B",
    "m_SlotType": 0,
    "m_Hidden": false,
    "m_ShaderOutputName": "B",
    "m_StageCapability": 3,
    "m_Value": {
        "x": 0.0,
        "y": 0.0,
        "z": 0.0,
        "w": 0.0
    },
    "m_DefaultValue": {
        "x": 0.0,
        "y": 0.0,
        "z": 0.0,
        "w": 0.0
    }
}

{
    "m_SGVersion": 0,
    "m_Type": "UnityEditor.ShaderGraph.Vector2MaterialSlot",
    "m_ObjectId": "71360dae33c948eda60fb2743aa2fea0",
    "m_Id": 0,
    "m_DisplayName": "Seed",
    "m_SlotType": 0,
    "m_Hidden": false,
    "m_ShaderOutputName": "Seed",
    "m_StageCapability": 3,
    "m_Value": {
        "x": 0.0,
        "y": 0.0
    },
    "m_DefaultValue": {
        "x": 0.0,
        "y": 0.0
    },
    "m_Labels": []
}

{
    "m_SGVersion": 0,
    "m_Type": "UnityEditor.ShaderGraph.Vector2MaterialSlot",
    "m_ObjectId": "781fe43921f34a49a06da9574a00eb3d",
    "m_Id": 2,
    "m_DisplayName": "Out Min Max",
    "m_SlotType": 0,
    "m_Hidden": false,
    "m_ShaderOutputName": "OutMinMax",
    "m_StageCapability": 3,
    "m_Value": {
        "x": 1.0,
        "y": 0.0
    },
    "m_DefaultValue": {
        "x": 0.0,
        "y": 0.0
    },
    "m_Labels": []
}

{
    "m_SGVersion": 0,
    "m_Type": "UnityEditor.ShaderGraph.LerpNode",
    "m_ObjectId": "784627895d9f4bf1927054bed651a098",
    "m_Group": {
        "m_Id": ""
    },
    "m_Name": "Lerp",
    "m_DrawState": {
        "m_Expanded": true,
        "m_Position": {
            "serializedVersion": "2",
            "x": 2034.0,
            "y": -15.33349609375,
            "width": 209.3330078125,
            "height": 328.0
        }
    },
    "m_Slots": [
        {
            "m_Id": "fcd94f9f5aa040a7932c291afb72a76e"
        },
        {
            "m_Id": "984331182c114082924d9614dc4cb952"
        },
        {
            "m_Id": "15675a8f41394bd4994e76e1bf628fe5"
        },
        {
            "m_Id": "d576a9679a8f42df8afbfc4eecc488ef"
        }
    ],
    "synonyms": [
        "mix",
        "blend",
        "linear interpolate"
    ],
    "m_Precision": 0,
    "m_PreviewExpanded": true,
    "m_DismissedVersion": 0,
    "m_PreviewMode": 0,
    "m_CustomColors": {
        "m_SerializableColors": []
    }
}

{
    "m_SGVersion": 0,
    "m_Type": "UnityEditor.ShaderGraph.AddNode",
    "m_ObjectId": "7c4d36db98ce4b1e8fb0a9b6ed008e4a",
    "m_Group": {
        "m_Id": ""
    },
    "m_Name": "Add",
    "m_DrawState": {
        "m_Expanded": true,
        "m_Position": {
            "serializedVersion": "2",
            "x": -534.6668090820313,
            "y": 660.0,
            "width": 209.3333740234375,
            "height": 304.00006103515627
        }
    },
    "m_Slots": [
        {
            "m_Id": "1393206c848a4c569bb7725baa0bf377"
        },
        {
            "m_Id": "5ec0ac8d291a4a219c2ac826e8f3710d"
        },
        {
            "m_Id": "8b17b5c47fe34273ab5b0bcd03590fbb"
        }
    ],
    "synonyms": [
        "addition",
        "sum",
        "plus"
    ],
    "m_Precision": 0,
    "m_PreviewExpanded": true,
    "m_DismissedVersion": 0,
    "m_PreviewMode": 0,
    "m_CustomColors": {
        "m_SerializableColors": []
    }
}

{
    "m_SGVersion": 0,
    "m_Type": "UnityEditor.ShaderGraph.Vector1MaterialSlot",
    "m_ObjectId": "7cc14182612d4db6b5e7a7b2808bf552",
    "m_Id": 2,
    "m_DisplayName": "Cosine Time",
    "m_SlotType": 1,
    "m_Hidden": false,
    "m_ShaderOutputName": "Cosine Time",
    "m_StageCapability": 3,
    "m_Value": 0.0,
    "m_DefaultValue": 0.0,
    "m_Labels": []
}

{
    "m_SGVersion": 0,
    "m_Type": "UnityEditor.ShaderGraph.AddNode",
    "m_ObjectId": "7d2d0ce4af9e4cd48e87115228e691dc",
    "m_Group": {
        "m_Id": ""
    },
    "m_Name": "Add",
    "m_DrawState": {
        "m_Expanded": true,
        "m_Position": {
            "serializedVersion": "2",
            "x": -534.66650390625,
            "y": 258.0,
            "width": 209.33349609375,
            "height": 304.000244140625
        }
    },
    "m_Slots": [
        {
            "m_Id": "8b279da5e0284fb2b09add07f580ce9a"
        },
        {
            "m_Id": "c3a01509e9ab43a183ba6e45001a5fb0"
        },
        {
            "m_Id": "6e9c896f7700433f801d8c4a30a0c5d7"
        }
    ],
    "synonyms": [
        "addition",
        "sum",
        "plus"
    ],
    "m_Precision": 0,
    "m_PreviewExpanded": true,
    "m_DismissedVersion": 0,
    "m_PreviewMode": 0,
    "m_CustomColors": {
        "m_SerializableColors": []
    }
}

{
    "m_SGVersion": 0,
    "m_Type": "UnityEditor.ShaderGraph.Vector1MaterialSlot",
    "m_ObjectId": "7ee43343b5ce4cccaf740e2a63e571b3",
    "m_Id": 4,
    "m_DisplayName": "Smooth Delta",
    "m_SlotType": 1,
    "m_Hidden": false,
    "m_ShaderOutputName": "Smooth Delta",
    "m_StageCapability": 3,
    "m_Value": 0.0,
    "m_DefaultValue": 0.0,
    "m_Labels": []
}

{
    "m_SGVersion": 0,
    "m_Type": "UnityEditor.ShaderGraph.Vector1MaterialSlot",
    "m_ObjectId": "80d2cb57ab184c77bf712e8b1b0314f9",
    "m_Id": 3,
    "m_DisplayName": "Z",
    "m_SlotType": 0,
    "m_Hidden": false,
    "m_ShaderOutputName": "Z",
    "m_StageCapability": 3,
    "m_Value": 0.0,
    "m_DefaultValue": 0.0,
    "m_Labels": [
        "Z"
    ]
}

{
    "m_SGVersion": 0,
    "m_Type": "UnityEditor.ShaderGraph.DynamicVectorMaterialSlot",
    "m_ObjectId": "80e5648ac56041f09675331e89f55875",
    "m_Id": 0,
    "m_DisplayName": "A",
    "m_SlotType": 0,
    "m_Hidden": false,
    "m_ShaderOutputName": "A",
    "m_StageCapability": 3,
    "m_Value": {
        "x": 99.0,
        "y": 0.0,
        "z": 0.0,
        "w": 0.0
    },
    "m_DefaultValue": {
        "x": 0.0,
        "y": 0.0,
        "z": 0.0,
        "w": 0.0
    }
}

{
    "m_SGVersion": 0,
    "m_Type": "UnityEditor.ShaderGraph.DynamicVectorMaterialSlot",
    "m_ObjectId": "84678af326674316a28a4c89c035f6b4",
    "m_Id": 0,
    "m_DisplayName": "In",
    "m_SlotType": 0,
    "m_Hidden": false,
    "m_ShaderOutputName": "In",
    "m_StageCapability": 3,
    "m_Value": {
        "x": 0.0,
        "y": 0.0,
        "z": 0.0,
        "w": 0.0
    },
    "m_DefaultValue": {
        "x": 0.0,
        "y": 0.0,
        "z": 0.0,
        "w": 0.0
    }
}

{
    "m_SGVersion": 0,
    "m_Type": "UnityEditor.ShaderGraph.Vector1MaterialSlot",
    "m_ObjectId": "8ae4158607a84eb1a2f1cb908e624457",
    "m_Id": 1,
    "m_DisplayName": "Min",
    "m_SlotType": 0,
    "m_Hidden": false,
    "m_ShaderOutputName": "Min",
    "m_StageCapability": 3,
    "m_Value": -9999.0,
    "m_DefaultValue": 0.0,
    "m_Labels": []
}

{
    "m_SGVersion": 0,
    "m_Type": "UnityEditor.ShaderGraph.DynamicVectorMaterialSlot",
    "m_ObjectId": "8b17b5c47fe34273ab5b0bcd03590fbb",
    "m_Id": 2,
    "m_DisplayName": "Out",
    "m_SlotType": 1,
    "m_Hidden": false,
    "m_ShaderOutputName": "Out",
    "m_StageCapability": 3,
    "m_Value": {
        "x": 0.0,
        "y": 0.0,
        "z": 0.0,
        "w": 0.0
    },
    "m_DefaultValue": {
        "x": 0.0,
        "y": 0.0,
        "z": 0.0,
        "w": 0.0
    }
}

{
    "m_SGVersion": 0,
    "m_Type": "UnityEditor.ShaderGraph.DynamicVectorMaterialSlot",
    "m_ObjectId": "8b279da5e0284fb2b09add07f580ce9a",
    "m_Id": 0,
    "m_DisplayName": "A",
    "m_SlotType": 0,
    "m_Hidden": false,
    "m_ShaderOutputName": "A",
    "m_StageCapability": 3,
    "m_Value": {
        "x": 0.0,
        "y": 0.0,
        "z": 0.0,
        "w": 0.0
    },
    "m_DefaultValue": {
        "x": 0.0,
        "y": 0.0,
        "z": 0.0,
        "w": 0.0
    }
}

{
    "m_SGVersion": 0,
    "m_Type": "UnityEditor.ShaderGraph.AddNode",
    "m_ObjectId": "8fd21346248e4dadb54ce93d53343097",
    "m_Group": {
        "m_Id": ""
    },
    "m_Name": "Add",
    "m_DrawState": {
        "m_Expanded": true,
        "m_Position": {
            "serializedVersion": "2",
            "x": -534.66650390625,
            "y": -145.333251953125,
            "width": 209.33349609375,
            "height": 304.0
        }
    },
    "m_Slots": [
        {
            "m_Id": "cb532b61fa394a27b9e39d7e85c0e35f"
        },
        {
            "m_Id": "2f742234558d4f0a9883c2a420e93bdc"
        },
        {
            "m_Id": "07028d031072417da0eece3cf8c0065b"
        }
    ],
    "synonyms": [
        "addition",
        "sum",
        "plus"
    ],
    "m_Precision": 0,
    "m_PreviewExpanded": true,
    "m_DismissedVersion": 0,
    "m_PreviewMode": 0,
    "m_CustomColors": {
        "m_SerializableColors": []
    }
}

{
    "m_SGVersion": 0,
    "m_Type": "UnityEditor.ShaderGraph.Vector1MaterialSlot",
    "m_ObjectId": "9096b89edf6c49ff8e5c69f1deaa9e5c",
    "m_Id": 1,
    "m_DisplayName": "Min",
    "m_SlotType": 0,
    "m_Hidden": false,
    "m_ShaderOutputName": "Min",
    "m_StageCapability": 3,
    "m_Value": -9999.0,
    "m_DefaultValue": 0.0,
    "m_Labels": []
}

{
    "m_SGVersion": 0,
    "m_Type": "UnityEditor.ShaderGraph.AddNode",
    "m_ObjectId": "90b05e23079c4c90a642a77dfa587a97",
    "m_Group": {
        "m_Id": ""
    },
    "m_Name": "Add",
    "m_DrawState": {
        "m_Expanded": true,
        "m_Position": {
            "serializedVersion": "2",
            "x": -534.6666870117188,
            "y": -982.6665649414063,
            "width": 209.33328247070313,
            "height": 304.0
        }
    },
    "m_Slots": [
        {
            "m_Id": "c7c582d011444afdb00b6170179f9dc4"
        },
        {
            "m_Id": "99987b8a3f0d4270ad0cd4f285e16c48"
        },
        {
            "m_Id": "e154cb91187f416795e053add0703a4e"
        }
    ],
    "synonyms": [
        "addition",
        "sum",
        "plus"
    ],
    "m_Precision": 0,
    "m_PreviewExpanded": true,
    "m_DismissedVersion": 0,
    "m_PreviewMode": 0,
    "m_CustomColors": {
        "m_SerializableColors": []
    }
}

{
    "m_SGVersion": 0,
    "m_Type": "UnityEditor.ShaderGraph.Vector2MaterialSlot",
    "m_ObjectId": "92446506be794e9490f859b679b13336",
    "m_Id": 0,
    "m_DisplayName": "Seed",
    "m_SlotType": 0,
    "m_Hidden": false,
    "m_ShaderOutputName": "Seed",
    "m_StageCapability": 3,
    "m_Value": {
        "x": 0.0,
        "y": 0.0
    },
    "m_DefaultValue": {
        "x": 0.0,
        "y": 0.0
    },
    "m_Labels": []
}

{
    "m_SGVersion": 0,
    "m_Type": "UnityEditor.ShaderGraph.Vector4MaterialSlot",
    "m_ObjectId": "952c905934c348cba7448327e45672aa",
    "m_Id": 0,
    "m_DisplayName": "Out",
    "m_SlotType": 1,
    "m_Hidden": false,
    "m_ShaderOutputName": "Out",
    "m_StageCapability": 3,
    "m_Value": {
        "x": 0.0,
        "y": 0.0,
        "z": 0.0,
        "w": 0.0
    },
    "m_DefaultValue": {
        "x": 0.0,
        "y": 0.0,
        "z": 0.0,
        "w": 0.0
    },
    "m_Labels": []
}

{
    "m_SGVersion": 0,
    "m_Type": "UnityEditor.ShaderGraph.Vector2MaterialSlot",
    "m_ObjectId": "95dda54091744b4b996a0b22b04e4b73",
    "m_Id": 0,
    "m_DisplayName": "Seed",
    "m_SlotType": 0,
    "m_Hidden": false,
    "m_ShaderOutputName": "Seed",
    "m_StageCapability": 3,
    "m_Value": {
        "x": 0.0,
        "y": 0.0
    },
    "m_DefaultValue": {
        "x": 0.0,
        "y": 0.0
    },
    "m_Labels": []
}

{
    "m_SGVersion": 0,
    "m_Type": "UnityEditor.ShaderGraph.Vector1MaterialSlot",
    "m_ObjectId": "95e50a16dfd44e34a4ac7e51e39e3e2a",
    "m_Id": 1,
    "m_DisplayName": "X",
    "m_SlotType": 0,
    "m_Hidden": false,
    "m_ShaderOutputName": "X",
    "m_StageCapability": 3,
    "m_Value": 0.0,
    "m_DefaultValue": 0.0,
    "m_Labels": []
}

{
    "m_SGVersion": 0,
    "m_Type": "UnityEditor.ShaderGraph.DynamicVectorMaterialSlot",
    "m_ObjectId": "984331182c114082924d9614dc4cb952",
    "m_Id": 1,
    "m_DisplayName": "B",
    "m_SlotType": 0,
    "m_Hidden": false,
    "m_ShaderOutputName": "B",
    "m_StageCapability": 3,
    "m_Value": {
        "x": 1.0,
        "y": 1.0,
        "z": 1.0,
        "w": 1.0
    },
    "m_DefaultValue": {
        "x": 0.0,
        "y": 0.0,
        "z": 0.0,
        "w": 0.0
    }
}

{
    "m_SGVersion": 0,
    "m_Type": "UnityEditor.ShaderGraph.DynamicVectorMaterialSlot",
    "m_ObjectId": "99987b8a3f0d4270ad0cd4f285e16c48",
    "m_Id": 1,
    "m_DisplayName": "B",
    "m_SlotType": 0,
    "m_Hidden": false,
    "m_ShaderOutputName": "B",
    "m_StageCapability": 3,
    "m_Value": {
        "x": 0.20000000298023225,
        "y": 0.0,
        "z": 0.0,
        "w": 0.0
    },
    "m_DefaultValue": {
        "x": 0.0,
        "y": 0.0,
        "z": 0.0,
        "w": 0.0
    }
}

{
    "m_SGVersion": 1,
    "m_Type": "UnityEditor.ShaderGraph.Internal.Vector1ShaderProperty",
    "m_ObjectId": "9a63e4684c014d898b3863e9b7cebd8f",
    "m_Guid": {
        "m_GuidSerialized": "37a58c92-f1b9-423d-84d1-07a402f30558"
    },
    "m_Name": "maxOffset",
    "m_DefaultRefNameVersion": 1,
    "m_RefNameGeneratedByDisplayName": "maxOffset",
    "m_DefaultReferenceName": "_maxOffset",
    "m_OverrideReferenceName": "",
    "m_GeneratePropertyBlock": true,
    "m_UseCustomSlotLabel": false,
    "m_CustomSlotLabel": "",
    "m_DismissedVersion": 0,
    "m_Precision": 0,
    "overrideHLSLDeclaration": false,
    "hlslDeclarationOverride": 0,
    "m_Hidden": false,
    "m_Value": 1.0,
    "m_FloatType": 0,
    "m_RangeValues": {
        "x": 0.0,
        "y": 1.0
    }
}

{
    "m_SGVersion": 0,
    "m_Type": "UnityEditor.ShaderGraph.DynamicValueMaterialSlot",
    "m_ObjectId": "9d046441ec2341ddab1776e2ea2b7a8d",
    "m_Id": 2,
    "m_DisplayName": "Out",
    "m_SlotType": 1,
    "m_Hidden": false,
    "m_ShaderOutputName": "Out",
    "m_StageCapability": 3,
    "m_Value": {
        "e00": 0.0,
        "e01": 0.0,
        "e02": 0.0,
        "e03": 0.0,
        "e10": 0.0,
        "e11": 0.0,
        "e12": 0.0,
        "e13": 0.0,
        "e20": 0.0,
        "e21": 0.0,
        "e22": 0.0,
        "e23": 0.0,
        "e30": 0.0,
        "e31": 0.0,
        "e32": 0.0,
        "e33": 0.0
    },
    "m_DefaultValue": {
        "e00": 1.0,
        "e01": 0.0,
        "e02": 0.0,
        "e03": 0.0,
        "e10": 0.0,
        "e11": 1.0,
        "e12": 0.0,
        "e13": 0.0,
        "e20": 0.0,
        "e21": 0.0,
        "e22": 1.0,
        "e23": 0.0,
        "e30": 0.0,
        "e31": 0.0,
        "e32": 0.0,
        "e33": 1.0
    }
}

{
    "m_SGVersion": 0,
    "m_Type": "UnityEditor.ShaderGraph.Vector1MaterialSlot",
    "m_ObjectId": "a1546d64391347868e1adc7ffed28423",
    "m_Id": 1,
    "m_DisplayName": "Min",
    "m_SlotType": 0,
    "m_Hidden": false,
    "m_ShaderOutputName": "Min",
    "m_StageCapability": 3,
    "m_Value": -9999.0,
    "m_DefaultValue": 0.0,
    "m_Labels": []
}

{
    "m_SGVersion": 0,
    "m_Type": "UnityEditor.ShaderGraph.Vector1MaterialSlot",
    "m_ObjectId": "a6aa27dc4b1f419ab8bb7c9ce18310e0",
    "m_Id": 3,
    "m_DisplayName": "Out",
    "m_SlotType": 1,
    "m_Hidden": false,
    "m_ShaderOutputName": "Out",
    "m_StageCapability": 3,
    "m_Value": 0.0,
    "m_DefaultValue": 0.0,
    "m_Labels": []
}

{
    "m_SGVersion": 0,
    "m_Type": "UnityEditor.ShaderGraph.DynamicVectorMaterialSlot",
    "m_ObjectId": "ab58db9b472d4e309589a39627acd2cb",
    "m_Id": 0,
    "m_DisplayName": "In",
    "m_SlotType": 0,
    "m_Hidden": false,
    "m_ShaderOutputName": "In",
    "m_StageCapability": 3,
    "m_Value": {
        "x": -1.0,
        "y": -1.0,
        "z": -1.0,
        "w": -1.0
    },
    "m_DefaultValue": {
        "x": 0.0,
        "y": 0.0,
        "z": 0.0,
        "w": 0.0
    }
}

{
    "m_SGVersion": 0,
    "m_Type": "UnityEditor.ShaderGraph.DynamicVectorMaterialSlot",
    "m_ObjectId": "ac6ffadcc76845df85db0088b8589030",
    "m_Id": 2,
    "m_DisplayName": "Out",
    "m_SlotType": 1,
    "m_Hidden": false,
    "m_ShaderOutputName": "Out",
    "m_StageCapability": 3,
    "m_Value": {
        "x": 0.0,
        "y": 0.0,
        "z": 0.0,
        "w": 0.0
    },
    "m_DefaultValue": {
        "x": 0.0,
        "y": 0.0,
        "z": 0.0,
        "w": 0.0
    }
}

{
    "m_SGVersion": 0,
    "m_Type": "UnityEditor.ShaderGraph.DynamicValueMaterialSlot",
    "m_ObjectId": "af2f7d9d9fc545de8ea0cfc4c321152d",
    "m_Id": 1,
    "m_DisplayName": "B",
    "m_SlotType": 0,
    "m_Hidden": false,
    "m_ShaderOutputName": "B",
    "m_StageCapability": 3,
    "m_Value": {
        "e00": 2.0,
        "e01": 2.0,
        "e02": 2.0,
        "e03": 2.0,
        "e10": 2.0,
        "e11": 2.0,
        "e12": 2.0,
        "e13": 2.0,
        "e20": 2.0,
        "e21": 2.0,
        "e22": 2.0,
        "e23": 2.0,
        "e30": 2.0,
        "e31": 2.0,
        "e32": 2.0,
        "e33": 2.0
    },
    "m_DefaultValue": {
        "e00": 1.0,
        "e01": 0.0,
        "e02": 0.0,
        "e03": 0.0,
        "e10": 0.0,
        "e11": 1.0,
        "e12": 0.0,
        "e13": 0.0,
        "e20": 0.0,
        "e21": 0.0,
        "e22": 1.0,
        "e23": 0.0,
        "e30": 0.0,
        "e31": 0.0,
        "e32": 0.0,
        "e33": 1.0
    }
}

{
    "m_SGVersion": 0,
    "m_Type": "UnityEditor.ShaderGraph.DynamicVectorMaterialSlot",
    "m_ObjectId": "afdad477a7504cbe88930ddc493464c0",
    "m_Id": 2,
    "m_DisplayName": "Out",
    "m_SlotType": 1,
    "m_Hidden": false,
    "m_ShaderOutputName": "Out",
    "m_StageCapability": 3,
    "m_Value": {
        "x": 0.0,
        "y": 0.0,
        "z": 0.0,
        "w": 0.0
    },
    "m_DefaultValue": {
        "x": 0.0,
        "y": 0.0,
        "z": 0.0,
        "w": 0.0
    }
}

{
    "m_SGVersion": 0,
    "m_Type": "UnityEditor.ShaderGraph.Vector4Node",
    "m_ObjectId": "b0813c358d5240ec9cbf9c95075cb696",
    "m_Group": {
        "m_Id": ""
    },
    "m_Name": "Vector 4",
    "m_DrawState": {
        "m_Expanded": true,
        "m_Position": {
            "serializedVersion": "2",
            "x": 809.3333740234375,
            "y": -1327.333251953125,
            "width": 132.6666259765625,
            "height": 150.6666259765625
        }
    },
    "m_Slots": [
        {
            "m_Id": "ebff845d51074f00a8e49fbda2138998"
        },
        {
            "m_Id": "b9fe26c9271e4a51b8520acc43cea818"
        },
        {
            "m_Id": "3b5ba8d62c1a4d2b8e0839390a7c8da4"
        },
        {
            "m_Id": "0ee91ae0927a4f32b472f90e336626ee"
        },
        {
            "m_Id": "952c905934c348cba7448327e45672aa"
        }
    ],
    "synonyms": [
        "4",
        "v4",
        "vec4",
        "float4"
    ],
    "m_Precision": 0,
    "m_PreviewExpanded": true,
    "m_DismissedVersion": 0,
    "m_PreviewMode": 0,
    "m_CustomColors": {
        "m_SerializableColors": []
    },
    "m_Value": {
        "x": 0.0,
        "y": 0.0,
        "z": 0.0,
        "w": 0.0
    }
}

{
    "m_SGVersion": 0,
    "m_Type": "UnityEditor.ShaderGraph.CategoryData",
    "m_ObjectId": "b1f148bfa1994e1f8e6d3d983fc9bb70",
    "m_Name": "",
    "m_ChildObjectList": [
        {
            "m_Id": "d0e45ed5c7034fcebe78c034543ee688"
        },
        {
            "m_Id": "9a63e4684c014d898b3863e9b7cebd8f"
        },
        {
            "m_Id": "c52301a910bd4547a13961d884d116d2"
        },
        {
            "m_Id": "020c419cd5a3471f82ceed3b345418b1"
        }
    ]
}

{
    "m_SGVersion": 0,
    "m_Type": "UnityEditor.ShaderGraph.Vector1MaterialSlot",
    "m_ObjectId": "b21390b543ba4970a6bb15093e9a4b6a",
    "m_Id": 2,
    "m_DisplayName": "Max",
    "m_SlotType": 0,
    "m_Hidden": false,
    "m_ShaderOutputName": "Max",
    "m_StageCapability": 3,
    "m_Value": 9999.0,
    "m_DefaultValue": 1.0,
    "m_Labels": []
}

{
    "m_SGVersion": 0,
    "m_Type": "UnityEditor.ShaderGraph.RandomRangeNode",
    "m_ObjectId": "b37ac30e25314a6b98a409b8dbb12b3a",
    "m_Group": {
        "m_Id": ""
    },
    "m_Name": "Random Range",
    "m_DrawState": {
        "m_Expanded": true,
        "m_Position": {
            "serializedVersion": "2",
            "x": 131.3333282470703,
            "y": -1204.0001220703125,
            "width": 209.3332977294922,
            "height": 328.0001220703125
        }
    },
    "m_Slots": [
        {
            "m_Id": "1b0056ab452346d9a96e1bf73bfd1cf7"
        },
        {
            "m_Id": "69dfbee85a4040b6bfca65fef33b8595"
        },
        {
            "m_Id": "11c97565d8a24081b02b8092d4d04089"
        },
        {
            "m_Id": "66c48ad69ddb47b3bf5dc22b9f7a7274"
        }
    ],
    "synonyms": [],
    "m_Precision": 0,
    "m_PreviewExpanded": true,
    "m_DismissedVersion": 0,
    "m_PreviewMode": 0,
    "m_CustomColors": {
        "m_SerializableColors": []
    }
}

{
    "m_SGVersion": 0,
    "m_Type": "UnityEditor.ShaderGraph.MultiplyNode",
    "m_ObjectId": "b92cf9689b2141788f603b12cb6cc6ef",
    "m_Group": {
        "m_Id": ""
    },
    "m_Name": "Multiply",
    "m_DrawState": {
        "m_Expanded": true,
        "m_Position": {
            "serializedVersion": "2",
            "x": -1889.33349609375,
            "y": -272.6666259765625,
            "width": 209.3333740234375,
            "height": 304.0
        }
    },
    "m_Slots": [
        {
            "m_Id": "52c9997f9609475c9a70ee087df31686"
        },
        {
            "m_Id": "af2f7d9d9fc545de8ea0cfc4c321152d"
        },
        {
            "m_Id": "9d046441ec2341ddab1776e2ea2b7a8d"
        }
    ],
    "synonyms": [
        "multiplication",
        "times",
        "x"
    ],
    "m_Precision": 0,
    "m_PreviewExpanded": true,
    "m_DismissedVersion": 0,
    "m_PreviewMode": 0,
    "m_CustomColors": {
        "m_SerializableColors": []
    }
}

{
    "m_SGVersion": 0,
    "m_Type": "UnityEditor.ShaderGraph.Vector1MaterialSlot",
    "m_ObjectId": "b9fe26c9271e4a51b8520acc43cea818",
    "m_Id": 2,
    "m_DisplayName": "Y",
    "m_SlotType": 0,
    "m_Hidden": false,
    "m_ShaderOutputName": "Y",
    "m_StageCapability": 3,
    "m_Value": 0.0,
    "m_DefaultValue": 0.0,
    "m_Labels": [
        "Y"
    ]
}

{
    "m_SGVersion": 0,
    "m_Type": "UnityEditor.ShaderGraph.DynamicVectorMaterialSlot",
    "m_ObjectId": "bd0e4d86745f4eab8456d1bf094a2cf9",
    "m_Id": 0,
    "m_DisplayName": "In",
    "m_SlotType": 0,
    "m_Hidden": false,
    "m_ShaderOutputName": "In",
    "m_StageCapability": 3,
    "m_Value": {
        "x": 0.0,
        "y": 0.0,
        "z": 0.0,
        "w": 0.0
    },
    "m_DefaultValue": {
        "x": 0.0,
        "y": 0.0,
        "z": 0.0,
        "w": 0.0
    }
}

{
    "m_SGVersion": 0,
    "m_Type": "UnityEditor.ShaderGraph.Vector1MaterialSlot",
    "m_ObjectId": "c13d356d7e6f4368ac65f0b0b0c90c5b",
    "m_Id": 0,
    "m_DisplayName": "Time",
    "m_SlotType": 1,
    "m_Hidden": false,
    "m_ShaderOutputName": "Time",
    "m_StageCapability": 3,
    "m_Value": 0.0,
    "m_DefaultValue": 0.0,
    "m_Labels": []
}

{
    "m_SGVersion": 0,
    "m_Type": "UnityEditor.ShaderGraph.Vector1MaterialSlot",
    "m_ObjectId": "c2f4deec88f54e319877a1df597a21b0",
    "m_Id": 2,
    "m_DisplayName": "Y",
    "m_SlotType": 0,
    "m_Hidden": false,
    "m_ShaderOutputName": "Y",
    "m_StageCapability": 3,
    "m_Value": 0.0,
    "m_DefaultValue": 0.0,
    "m_Labels": [
        "Y"
    ]
}

{
    "m_SGVersion": 0,
    "m_Type": "UnityEditor.ShaderGraph.Vector1MaterialSlot",
    "m_ObjectId": "c31eb75a429f45eb91ac0d13b6427ef4",
    "m_Id": 1,
    "m_DisplayName": "Sine Time",
    "m_SlotType": 1,
    "m_Hidden": false,
    "m_ShaderOutputName": "Sine Time",
    "m_StageCapability": 3,
    "m_Value": 0.0,
    "m_DefaultValue": 0.0,
    "m_Labels": []
}

{
    "m_SGVersion": 0,
    "m_Type": "UnityEditor.ShaderGraph.DynamicVectorMaterialSlot",
    "m_ObjectId": "c3a01509e9ab43a183ba6e45001a5fb0",
    "m_Id": 1,
    "m_DisplayName": "B",
    "m_SlotType": 0,
    "m_Hidden": false,
    "m_ShaderOutputName": "B",
    "m_StageCapability": 3,
    "m_Value": {
        "x": 0.5,
        "y": 0.0,
        "z": 0.0,
        "w": 0.0
    },
    "m_DefaultValue": {
        "x": 0.0,
        "y": 0.0,
        "z": 0.0,
        "w": 0.0
    }
}

{
    "m_SGVersion": 0,
    "m_Type": "UnityEditor.ShaderGraph.PropertyNode",
    "m_ObjectId": "c48fc71a21eb4b709fa9a54b54d043b6",
    "m_Group": {
        "m_Id": ""
    },
    "m_Name": "Property",
    "m_DrawState": {
        "m_Expanded": true,
        "m_Position": {
            "serializedVersion": "2",
            "x": -2180.000244140625,
            "y": -384.6666259765625,
            "width": 108.666748046875,
            "height": 35.999969482421878
        }
    },
    "m_Slots": [
        {
            "m_Id": "341f8417c9804962b7ad2a8d0354247d"
        }
    ],
    "synonyms": [],
    "m_Precision": 0,
    "m_PreviewExpanded": true,
    "m_DismissedVersion": 0,
    "m_PreviewMode": 0,
    "m_CustomColors": {
        "m_SerializableColors": []
    },
    "m_Property": {
        "m_Id": "c52301a910bd4547a13961d884d116d2"
    }
}

{
    "m_SGVersion": 1,
    "m_Type": "UnityEditor.ShaderGraph.Internal.Vector1ShaderProperty",
    "m_ObjectId": "c52301a910bd4547a13961d884d116d2",
    "m_Guid": {
        "m_GuidSerialized": "524e71e4-90a3-42cc-a7ad-5f92629923ad"
    },
    "m_Name": "speed",
    "m_DefaultRefNameVersion": 1,
    "m_RefNameGeneratedByDisplayName": "speed",
    "m_DefaultReferenceName": "_speed",
    "m_OverrideReferenceName": "",
    "m_GeneratePropertyBlock": true,
    "m_UseCustomSlotLabel": false,
    "m_CustomSlotLabel": "",
    "m_DismissedVersion": 0,
    "m_Precision": 0,
    "overrideHLSLDeclaration": false,
    "hlslDeclarationOverride": 0,
    "m_Hidden": false,
    "m_Value": 0.5,
    "m_FloatType": 0,
    "m_RangeValues": {
        "x": 0.0,
        "y": 1.0
    }
}

{
    "m_SGVersion": 0,
    "m_Type": "UnityEditor.ShaderGraph.DynamicVectorMaterialSlot",
    "m_ObjectId": "c5a8dbd6b9d24417929a02881f9f827d",
    "m_Id": 0,
    "m_DisplayName": "A",
    "m_SlotType": 0,
    "m_Hidden": false,
    "m_ShaderOutputName": "A",
    "m_StageCapability": 3,
    "m_Value": {
        "x": 0.0,
        "y": 0.0,
        "z": 0.0,
        "w": 0.0
    },
    "m_DefaultValue": {
        "x": 0.0,
        "y": 0.0,
        "z": 0.0,
        "w": 0.0
    }
}

{
    "m_SGVersion": 0,
    "m_Type": "UnityEditor.ShaderGraph.DynamicVectorMaterialSlot",
    "m_ObjectId": "c7c582d011444afdb00b6170179f9dc4",
    "m_Id": 0,
    "m_DisplayName": "A",
    "m_SlotType": 0,
    "m_Hidden": false,
    "m_ShaderOutputName": "A",
    "m_StageCapability": 3,
    "m_Value": {
        "x": 0.0,
        "y": 0.0,
        "z": 0.0,
        "w": 0.0
    },
    "m_DefaultValue": {
        "x": 0.0,
        "y": 0.0,
        "z": 0.0,
        "w": 0.0
    }
}

{
    "m_SGVersion": 0,
    "m_Type": "UnityEditor.ShaderGraph.DynamicVectorMaterialSlot",
    "m_ObjectId": "cb532b61fa394a27b9e39d7e85c0e35f",
    "m_Id": 0,
    "m_DisplayName": "A",
    "m_SlotType": 0,
    "m_Hidden": false,
    "m_ShaderOutputName": "A",
    "m_StageCapability": 3,
    "m_Value": {
        "x": 0.0,
        "y": 0.0,
        "z": 0.0,
        "w": 0.0
    },
    "m_DefaultValue": {
        "x": 0.0,
        "y": 0.0,
        "z": 0.0,
        "w": 0.0
    }
}

{
    "m_SGVersion": 1,
    "m_Type": "UnityEditor.ShaderGraph.Internal.Vector1ShaderProperty",
    "m_ObjectId": "d0e45ed5c7034fcebe78c034543ee688",
    "m_Guid": {
        "m_GuidSerialized": "a36f2a13-cf04-4b18-8393-31d5b710ee75"
    },
    "m_Name": "minOffset",
    "m_DefaultRefNameVersion": 1,
    "m_RefNameGeneratedByDisplayName": "minOffset",
    "m_DefaultReferenceName": "_minOffset",
    "m_OverrideReferenceName": "",
    "m_GeneratePropertyBlock": true,
    "m_UseCustomSlotLabel": false,
    "m_CustomSlotLabel": "",
    "m_DismissedVersion": 0,
    "m_Precision": 0,
    "overrideHLSLDeclaration": false,
    "hlslDeclarationOverride": 0,
    "m_Hidden": false,
    "m_Value": 0.0,
    "m_FloatType": 0,
    "m_RangeValues": {
        "x": 0.0,
        "y": 1.0
    }
}

{
    "m_SGVersion": 0,
    "m_Type": "UnityEditor.ShaderGraph.Vector1MaterialSlot",
    "m_ObjectId": "d0ee942393734ea0a8688698596dc6ab",
    "m_Id": 0,
    "m_DisplayName": "maxOffset",
    "m_SlotType": 1,
    "m_Hidden": false,
    "m_ShaderOutputName": "Out",
    "m_StageCapability": 3,
    "m_Value": 0.0,
    "m_DefaultValue": 0.0,
    "m_Labels": []
}

{
    "m_SGVersion": 0,
    "m_Type": "UnityEditor.ShaderGraph.Vector1MaterialSlot",
    "m_ObjectId": "d52628f8fb5c41c38917950befe58212",
    "m_Id": 1,
    "m_DisplayName": "Min",
    "m_SlotType": 0,
    "m_Hidden": false,
    "m_ShaderOutputName": "Min",
    "m_StageCapability": 3,
    "m_Value": -9999.0,
    "m_DefaultValue": 0.0,
    "m_Labels": []
}

{
    "m_SGVersion": 0,
    "m_Type": "UnityEditor.ShaderGraph.DynamicVectorMaterialSlot",
    "m_ObjectId": "d576a9679a8f42df8afbfc4eecc488ef",
    "m_Id": 3,
    "m_DisplayName": "Out",
    "m_SlotType": 1,
    "m_Hidden": false,
    "m_ShaderOutputName": "Out",
    "m_StageCapability": 3,
    "m_Value": {
        "x": 0.0,
        "y": 0.0,
        "z": 0.0,
        "w": 0.0
    },
    "m_DefaultValue": {
        "x": 0.0,
        "y": 0.0,
        "z": 0.0,
        "w": 0.0
    }
}

{
    "m_SGVersion": 0,
    "m_Type": "UnityEditor.ShaderGraph.Vector2MaterialSlot",
    "m_ObjectId": "de0d5ce2d9c64c6582090a3f9aac7bde",
    "m_Id": 0,
    "m_DisplayName": "Seed",
    "m_SlotType": 0,
    "m_Hidden": false,
    "m_ShaderOutputName": "Seed",
    "m_StageCapability": 3,
    "m_Value": {
        "x": 0.0,
        "y": 0.0
    },
    "m_DefaultValue": {
        "x": 0.0,
        "y": 0.0
    },
    "m_Labels": []
}

{
    "m_SGVersion": 0,
    "m_Type": "UnityEditor.ShaderGraph.AddNode",
    "m_ObjectId": "df8b7754df264243a9483a9939beb6cc",
    "m_Group": {
        "m_Id": ""
    },
    "m_Name": "Add",
    "m_DrawState": {
        "m_Expanded": true,
        "m_Position": {
            "serializedVersion": "2",
            "x": -534.6666259765625,
            "y": -1379.3331298828125,
            "width": 209.33331298828126,
            "height": 303.9998779296875
        }
    },
    "m_Slots": [
        {
            "m_Id": "10d85f5fb5f54d7780b040705159e4bf"
        },
        {
            "m_Id": "eb9d6df82e61429f95c52d393895bb89"
        },
        {
            "m_Id": "23b1cc3992ce46aea2a05c6712b43bff"
        }
    ],
    "synonyms": [
        "addition",
        "sum",
        "plus"
    ],
    "m_Precision": 0,
    "m_PreviewExpanded": true,
    "m_DismissedVersion": 0,
    "m_PreviewMode": 0,
    "m_CustomColors": {
        "m_SerializableColors": []
    }
}

{
    "m_SGVersion": 0,
    "m_Type": "UnityEditor.ShaderGraph.FloorNode",
    "m_ObjectId": "e06ccead52064ec5b7ad0029aa2e972d",
    "m_Group": {
        "m_Id": ""
    },
    "m_Name": "Floor",
    "m_DrawState": {
        "m_Expanded": true,
        "m_Position": {
            "serializedVersion": "2",
            "x": -1116.6669921875,
            "y": -557.9998779296875,
            "width": 209.333984375,
            "height": 279.9998779296875
        }
    },
    "m_Slots": [
        {
            "m_Id": "84678af326674316a28a4c89c035f6b4"
        },
        {
            "m_Id": "35ebacf7c01744099343e63e9f931313"
        }
    ],
    "synonyms": [
        "down"
    ],
    "m_Precision": 0,
    "m_PreviewExpanded": true,
    "m_DismissedVersion": 0,
    "m_PreviewMode": 0,
    "m_CustomColors": {
        "m_SerializableColors": []
    }
}

{
    "m_SGVersion": 0,
    "m_Type": "UnityEditor.ShaderGraph.Vector1MaterialSlot",
    "m_ObjectId": "e0871f58757b439186726b83f5c80d34",
    "m_Id": 2,
    "m_DisplayName": "Max",
    "m_SlotType": 0,
    "m_Hidden": false,
    "m_ShaderOutputName": "Max",
    "m_StageCapability": 3,
    "m_Value": 9999.0,
    "m_DefaultValue": 1.0,
    "m_Labels": []
}

{
    "m_SGVersion": 0,
    "m_Type": "UnityEditor.ShaderGraph.DynamicVectorMaterialSlot",
    "m_ObjectId": "e154cb91187f416795e053add0703a4e",
    "m_Id": 2,
    "m_DisplayName": "Out",
    "m_SlotType": 1,
    "m_Hidden": false,
    "m_ShaderOutputName": "Out",
    "m_StageCapability": 3,
    "m_Value": {
        "x": 0.0,
        "y": 0.0,
        "z": 0.0,
        "w": 0.0
    },
    "m_DefaultValue": {
        "x": 0.0,
        "y": 0.0,
        "z": 0.0,
        "w": 0.0
    }
}

{
    "m_SGVersion": 0,
    "m_Type": "UnityEditor.ShaderGraph.RandomRangeNode",
    "m_ObjectId": "e1d75041f53c44939f57cfe7cce750be",
    "m_Group": {
        "m_Id": ""
    },
    "m_Name": "Random Range",
    "m_DrawState": {
        "m_Expanded": true,
        "m_Position": {
            "serializedVersion": "2",
            "x": 131.3333740234375,
            "y": -1620.000244140625,
            "width": 209.33343505859376,
            "height": 328.0001220703125
        }
    },
    "m_Slots": [
        {
            "m_Id": "71360dae33c948eda60fb2743aa2fea0"
        },
        {
            "m_Id": "9096b89edf6c49ff8e5c69f1deaa9e5c"
        },
        {
            "m_Id": "f3ed77c61437418b892755c0778bf5b8"
        },
        {
            "m_Id": "07d169780d0e4f17aac4fb69e0f5bac3"
        }
    ],
    "synonyms": [],
    "m_Precision": 0,
    "m_PreviewExpanded": true,
    "m_DismissedVersion": 0,
    "m_PreviewMode": 0,
    "m_CustomColors": {
        "m_SerializableColors": []
    }
}

{
    "m_SGVersion": 0,
    "m_Type": "UnityEditor.ShaderGraph.DynamicVectorMaterialSlot",
    "m_ObjectId": "e3a24298144248ecad797844c0cc7b7a",
    "m_Id": 0,
    "m_DisplayName": "In",
    "m_SlotType": 0,
    "m_Hidden": false,
    "m_ShaderOutputName": "In",
    "m_StageCapability": 3,
    "m_Value": {
        "x": 0.0,
        "y": 0.0,
        "z": 0.0,
        "w": 0.0
    },
    "m_DefaultValue": {
        "x": 0.0,
        "y": 0.0,
        "z": 0.0,
        "w": 0.0
    }
}

{
    "m_SGVersion": 0,
    "m_Type": "UnityEditor.ShaderGraph.Vector1MaterialSlot",
    "m_ObjectId": "e5354194511a4eec950e52ac4c3d1106",
    "m_Id": 3,
    "m_DisplayName": "Out",
    "m_SlotType": 1,
    "m_Hidden": false,
    "m_ShaderOutputName": "Out",
    "m_StageCapability": 3,
    "m_Value": 0.0,
    "m_DefaultValue": 0.0,
    "m_Labels": []
}

{
    "m_SGVersion": 0,
    "m_Type": "UnityEditor.ShaderGraph.RoundNode",
    "m_ObjectId": "e6d5816786d7454d99fbd4271d692d83",
    "m_Group": {
        "m_Id": ""
    },
    "m_Name": "Round",
    "m_DrawState": {
        "m_Expanded": true,
        "m_Position": {
            "serializedVersion": "2",
            "x": -1116.6669921875,
            "y": 50.66650390625,
            "width": 209.333984375,
            "height": 280.000244140625
        }
    },
    "m_Slots": [
        {
            "m_Id": "e3a24298144248ecad797844c0cc7b7a"
        },
        {
            "m_Id": "6b0a38420f21442e890ce6154a422128"
        }
    ],
    "synonyms": [],
    "m_Precision": 0,
    "m_PreviewExpanded": true,
    "m_DismissedVersion": 0,
    "m_PreviewMode": 0,
    "m_CustomColors": {
        "m_SerializableColors": []
    }
}

{
    "m_SGVersion": 0,
    "m_Type": "UnityEditor.ShaderGraph.TimeNode",
    "m_ObjectId": "eb0fcfc54a7540319fb8622e96b2e3c0",
    "m_Group": {
        "m_Id": ""
    },
    "m_Name": "Time",
    "m_DrawState": {
        "m_Expanded": true,
        "m_Position": {
            "serializedVersion": "2",
            "x": -2196.6669921875,
            "y": -272.6666259765625,
            "width": 125.33349609375,
            "height": 174.66665649414063
        }
    },
    "m_Slots": [
        {
            "m_Id": "c13d356d7e6f4368ac65f0b0b0c90c5b"
        },
        {
            "m_Id": "c31eb75a429f45eb91ac0d13b6427ef4"
        },
        {
            "m_Id": "7cc14182612d4db6b5e7a7b2808bf552"
        },
        {
            "m_Id": "298d950d5d2e4d03baadca40a5e9d56a"
        },
        {
            "m_Id": "7ee43343b5ce4cccaf740e2a63e571b3"
        }
    ],
    "synonyms": [],
    "m_Precision": 0,
    "m_PreviewExpanded": true,
    "m_DismissedVersion": 0,
    "m_PreviewMode": 0,
    "m_CustomColors": {
        "m_SerializableColors": []
    }
}

{
    "m_SGVersion": 0,
    "m_Type": "UnityEditor.ShaderGraph.AddNode",
    "m_ObjectId": "eb23717a68e94a038990f7b1b0d7d8d4",
    "m_Group": {
        "m_Id": ""
    },
    "m_Name": "Add",
    "m_DrawState": {
        "m_Expanded": true,
        "m_Position": {
            "serializedVersion": "2",
            "x": -1534.666748046875,
            "y": -272.6666259765625,
            "width": 209.333251953125,
            "height": 304.0
        }
    },
    "m_Slots": [
        {
            "m_Id": "80e5648ac56041f09675331e89f55875"
        },
        {
            "m_Id": "70a7791bc20a490287460760369e3753"
        },
        {
            "m_Id": "afdad477a7504cbe88930ddc493464c0"
        }
    ],
    "synonyms": [
        "addition",
        "sum",
        "plus"
    ],
    "m_Precision": 0,
    "m_PreviewExpanded": true,
    "m_DismissedVersion": 0,
    "m_PreviewMode": 0,
    "m_CustomColors": {
        "m_SerializableColors": []
    }
}

{
    "m_SGVersion": 0,
    "m_Type": "UnityEditor.ShaderGraph.DynamicVectorMaterialSlot",
    "m_ObjectId": "eb9d6df82e61429f95c52d393895bb89",
    "m_Id": 1,
    "m_DisplayName": "B",
    "m_SlotType": 0,
    "m_Hidden": false,
    "m_ShaderOutputName": "B",
    "m_StageCapability": 3,
    "m_Value": {
        "x": 0.10000000149011612,
        "y": 0.0,
        "z": 0.0,
        "w": 0.0
    },
    "m_DefaultValue": {
        "x": 0.0,
        "y": 0.0,
        "z": 0.0,
        "w": 0.0
    }
}

{
    "m_SGVersion": 0,
    "m_Type": "UnityEditor.ShaderGraph.Vector1MaterialSlot",
    "m_ObjectId": "ebff845d51074f00a8e49fbda2138998",
    "m_Id": 1,
    "m_DisplayName": "X",
    "m_SlotType": 0,
    "m_Hidden": false,
    "m_ShaderOutputName": "X",
    "m_StageCapability": 3,
    "m_Value": 0.0,
    "m_DefaultValue": 0.0,
    "m_Labels": []
}

{
    "m_SGVersion": 0,
    "m_Type": "UnityEditor.ShaderGraph.DynamicVectorMaterialSlot",
    "m_ObjectId": "ecb53548d446488ab29bdffd8f58ea48",
    "m_Id": 1,
    "m_DisplayName": "B",
    "m_SlotType": 0,
    "m_Hidden": false,
    "m_ShaderOutputName": "B",
    "m_StageCapability": 3,
    "m_Value": {
        "x": 0.699999988079071,
        "y": 0.0,
        "z": 0.0,
        "w": 0.0
    },
    "m_DefaultValue": {
        "x": 0.0,
        "y": 0.0,
        "z": 0.0,
        "w": 0.0
    }
}

{
    "m_SGVersion": 0,
    "m_Type": "UnityEditor.ShaderGraph.Vector1MaterialSlot",
    "m_ObjectId": "f1e56d7fb49448a5982e805bac3480ad",
    "m_Id": 1,
    "m_DisplayName": "Min",
    "m_SlotType": 0,
    "m_Hidden": false,
    "m_ShaderOutputName": "Min",
    "m_StageCapability": 3,
    "m_Value": -9999.0,
    "m_DefaultValue": 0.0,
    "m_Labels": []
}

{
    "m_SGVersion": 0,
    "m_Type": "UnityEditor.ShaderGraph.Vector1MaterialSlot",
    "m_ObjectId": "f3ed77c61437418b892755c0778bf5b8",
    "m_Id": 2,
    "m_DisplayName": "Max",
    "m_SlotType": 0,
    "m_Hidden": false,
    "m_ShaderOutputName": "Max",
    "m_StageCapability": 3,
    "m_Value": 9999.0,
    "m_DefaultValue": 1.0,
    "m_Labels": []
}

{
    "m_SGVersion": 0,
    "m_Type": "UnityEditor.ShaderGraph.Vector1MaterialSlot",
    "m_ObjectId": "f553ba036c284c36a11dcfc7d59b3ae7",
    "m_Id": 3,
    "m_DisplayName": "Out",
    "m_SlotType": 1,
    "m_Hidden": false,
    "m_ShaderOutputName": "Out",
    "m_StageCapability": 3,
    "m_Value": 0.0,
    "m_DefaultValue": 0.0,
    "m_Labels": []
}

{
    "m_SGVersion": 0,
    "m_Type": "UnityEditor.ShaderGraph.DynamicVectorMaterialSlot",
    "m_ObjectId": "fcd94f9f5aa040a7932c291afb72a76e",
    "m_Id": 0,
    "m_DisplayName": "A",
    "m_SlotType": 0,
    "m_Hidden": false,
    "m_ShaderOutputName": "A",
    "m_StageCapability": 3,
    "m_Value": {
        "x": 0.0,
        "y": 0.0,
        "z": 0.0,
        "w": 0.0
    },
    "m_DefaultValue": {
        "x": 0.0,
        "y": 0.0,
        "z": 0.0,
        "w": 0.0
    }
}

{
    "m_SGVersion": 0,
    "m_Type": "UnityEditor.ShaderGraph.Vector4MaterialSlot",
    "m_ObjectId": "feb56806846541ff8656ab0f3ff90731",
    "m_Id": 1,
    "m_DisplayName": "output",
    "m_SlotType": 0,
    "m_Hidden": false,
    "m_ShaderOutputName": "output",
    "m_StageCapability": 3,
    "m_Value": {
        "x": 0.0,
        "y": 0.0,
        "z": 0.0,
        "w": 0.0
    },
    "m_DefaultValue": {
        "x": 0.0,
        "y": 0.0,
        "z": 0.0,
        "w": 0.0
    },
    "m_Labels": []
}

