%YAML 1.1
%TAG !u! tag:unity3d.com,2011:
--- !u!1001 &6982635091512582271
PrefabInstance:
  m_ObjectHideFlags: 0
  serializedVersion: 2
  m_Modification:
    serializedVersion: 3
    m_TransformParent: {fileID: 0}
    m_Modifications:
    - target: {fileID: 1874814603719935250, guid: 9160e36211aac194fb551d49125e0f37, type: 3}
      propertyPath: m_Name
      value: Enemy Bullet 1
      objectReference: {fileID: 0}
    - target: {fileID: 1874814603719935260, guid: 9160e36211aac194fb551d49125e0f37, type: 3}
      propertyPath: m_LocalPosition.x
      value: 0
      objectReference: {fileID: 0}
    - target: {fileID: 1874814603719935260, guid: 9160e36211aac194fb551d49125e0f37, type: 3}
      propertyPath: m_LocalPosition.y
      value: 0
      objectReference: {fileID: 0}
    - target: {fileID: 1874814603719935260, guid: 9160e36211aac194fb551d49125e0f37, type: 3}
      propertyPath: m_LocalPosition.z
      value: 0
      objectReference: {fileID: 0}
    - target: {fileID: 1874814603719935260, guid: 9160e36211aac194fb551d49125e0f37, type: 3}
      propertyPath: m_LocalRotation.w
      value: 1
      objectReference: {fileID: 0}
    - target: {fileID: 1874814603719935260, guid: 9160e36211aac194fb551d49125e0f37, type: 3}
      propertyPath: m_LocalRotation.x
      value: 0
      objectReference: {fileID: 0}
    - target: {fileID: 1874814603719935260, guid: 9160e36211aac194fb551d49125e0f37, type: 3}
      propertyPath: m_LocalRotation.y
      value: 0
      objectReference: {fileID: 0}
    - target: {fileID: 1874814603719935260, guid: 9160e36211aac194fb551d49125e0f37, type: 3}
      propertyPath: m_LocalRotation.z
      value: 0
      objectReference: {fileID: 0}
    - target: {fileID: 1874814603719935260, guid: 9160e36211aac194fb551d49125e0f37, type: 3}
      propertyPath: m_LocalEulerAnglesHint.x
      value: 0
      objectReference: {fileID: 0}
    - target: {fileID: 1874814603719935260, guid: 9160e36211aac194fb551d49125e0f37, type: 3}
      propertyPath: m_LocalEulerAnglesHint.y
      value: 0
      objectReference: {fileID: 0}
    - target: {fileID: 1874814603719935260, guid: 9160e36211aac194fb551d49125e0f37, type: 3}
      propertyPath: m_LocalEulerAnglesHint.z
      value: 0
      objectReference: {fileID: 0}
    - target: {fileID: 1874814603719935261, guid: 9160e36211aac194fb551d49125e0f37, type: 3}
      propertyPath: range
      value: 100
      objectReference: {fileID: 0}
    - target: {fileID: 1874814603719935261, guid: 9160e36211aac194fb551d49125e0f37, type: 3}
      propertyPath: damage
      value: 1
      objectReference: {fileID: 0}
    - target: {fileID: 1874814603719935261, guid: 9160e36211aac194fb551d49125e0f37, type: 3}
      propertyPath: moveSpeed
      value: 10
      objectReference: {fileID: 0}
    - target: {fileID: 1874814603719935261, guid: 9160e36211aac194fb551d49125e0f37, type: 3}
      propertyPath: prefabIndex
      value: 1
      objectReference: {fileID: 0}
    - target: {fileID: 1874814603719935261, guid: 9160e36211aac194fb551d49125e0f37, type: 3}
      propertyPath: autoDespawnMode
      value: 1
      objectReference: {fileID: 0}
    - target: {fileID: 1874814603719935261, guid: 9160e36211aac194fb551d49125e0f37, type: 3}
      propertyPath: whatReducesHits.m_Bits
      value: 2624
      objectReference: {fileID: 0}
    - target: {fileID: 1950462187188967463, guid: 9160e36211aac194fb551d49125e0f37, type: 3}
      propertyPath: 'm_Materials.Array.data[0]'
      value: 
      objectReference: {fileID: 2100000, guid: c7804f9389b184047bb7359c11ce7611, type: 2}
    m_RemovedComponents: []
    m_RemovedGameObjects: []
    m_AddedGameObjects: []
    m_AddedComponents: []
  m_SourcePrefab: {fileID: 100100000, guid: 9160e36211aac194fb551d49125e0f37, type: 3}
