%YAML 1.1
%TAG !u! tag:unity3d.com,2011:
--- !u!1001 &6982635091512582271
PrefabInstance:
  m_ObjectHideFlags: 0
  serializedVersion: 2
  m_Modification:
    serializedVersion: 3
    m_TransformParent: {fileID: 0}
    m_Modifications:
    - target: {fileID: 1874814602990611703, guid: 9160e36211aac194fb551d49125e0f37, type: 3}
      propertyPath: m_LocalRotation.w
      value: -0.7071068
      objectReference: {fileID: 0}
    - target: {fileID: 1874814602990611703, guid: 9160e36211aac194fb551d49125e0f37, type: 3}
      propertyPath: m_LocalRotation.x
      value: 0.7071068
      objectReference: {fileID: 0}
    - target: {fileID: 1874814602990611703, guid: 9160e36211aac194fb551d49125e0f37, type: 3}
      propertyPath: m_LocalRotation.y
      value: -0
      objectReference: {fileID: 0}
    - target: {fileID: 1874814602990611703, guid: 9160e36211aac194fb551d49125e0f37, type: 3}
      propertyPath: m_LocalRotation.z
      value: -0
      objectReference: {fileID: 0}
    - target: {fileID: 1874814602990611703, guid: 9160e36211aac194fb551d49125e0f37, type: 3}
      propertyPath: m_LocalEulerAnglesHint.x
      value: 270
      objectReference: {fileID: 0}
    - target: {fileID: 1874814603719935250, guid: 9160e36211aac194fb551d49125e0f37, type: 3}
      propertyPath: m_Name
      value: Enemy Bullet 2
      objectReference: {fileID: 0}
    - target: {fileID: 1874814603719935260, guid: 9160e36211aac194fb551d49125e0f37, type: 3}
      propertyPath: m_LocalPosition.x
      value: 0
      objectReference: {fileID: 0}
    - target: {fileID: 1874814603719935260, guid: 9160e36211aac194fb551d49125e0f37, type: 3}
      propertyPath: m_LocalPosition.y
      value: 0
      objectReference: {fileID: 0}
    - target: {fileID: 1874814603719935260, guid: 9160e36211aac194fb551d49125e0f37, type: 3}
      propertyPath: m_LocalPosition.z
      value: 0
      objectReference: {fileID: 0}
    - target: {fileID: 1874814603719935260, guid: 9160e36211aac194fb551d49125e0f37, type: 3}
      propertyPath: m_LocalRotation.w
      value: 1
      objectReference: {fileID: 0}
    - target: {fileID: 1874814603719935260, guid: 9160e36211aac194fb551d49125e0f37, type: 3}
      propertyPath: m_LocalRotation.x
      value: 0
      objectReference: {fileID: 0}
    - target: {fileID: 1874814603719935260, guid: 9160e36211aac194fb551d49125e0f37, type: 3}
      propertyPath: m_LocalRotation.y
      value: 0
      objectReference: {fileID: 0}
    - target: {fileID: 1874814603719935260, guid: 9160e36211aac194fb551d49125e0f37, type: 3}
      propertyPath: m_LocalRotation.z
      value: 0
      objectReference: {fileID: 0}
    - target: {fileID: 1874814603719935260, guid: 9160e36211aac194fb551d49125e0f37, type: 3}
      propertyPath: m_LocalEulerAnglesHint.x
      value: 0
      objectReference: {fileID: 0}
    - target: {fileID: 1874814603719935260, guid: 9160e36211aac194fb551d49125e0f37, type: 3}
      propertyPath: m_LocalEulerAnglesHint.y
      value: 0
      objectReference: {fileID: 0}
    - target: {fileID: 1874814603719935260, guid: 9160e36211aac194fb551d49125e0f37, type: 3}
      propertyPath: m_LocalEulerAnglesHint.z
      value: 0
      objectReference: {fileID: 0}
    - target: {fileID: 1874814603719935261, guid: 9160e36211aac194fb551d49125e0f37, type: 3}
      propertyPath: range
      value: 60
      objectReference: {fileID: 0}
    - target: {fileID: 1874814603719935261, guid: 9160e36211aac194fb551d49125e0f37, type: 3}
      propertyPath: damage
      value: 1
      objectReference: {fileID: 0}
    - target: {fileID: 1874814603719935261, guid: 9160e36211aac194fb551d49125e0f37, type: 3}
      propertyPath: collider
      value: 
      objectReference: {fileID: 3824031220283128311}
    - target: {fileID: 1874814603719935261, guid: 9160e36211aac194fb551d49125e0f37, type: 3}
      propertyPath: moveSpeed
      value: 6
      objectReference: {fileID: 0}
    - target: {fileID: 1874814603719935261, guid: 9160e36211aac194fb551d49125e0f37, type: 3}
      propertyPath: prefabIndex
      value: 2
      objectReference: {fileID: 0}
    - target: {fileID: 1874814603719935261, guid: 9160e36211aac194fb551d49125e0f37, type: 3}
      propertyPath: autoDespawnMode
      value: 1
      objectReference: {fileID: 0}
    - target: {fileID: 1874814603719935261, guid: 9160e36211aac194fb551d49125e0f37, type: 3}
      propertyPath: whatReducesHits.m_Bits
      value: 2624
      objectReference: {fileID: 0}
    - target: {fileID: 1950462187188967463, guid: 9160e36211aac194fb551d49125e0f37, type: 3}
      propertyPath: 'm_Materials.Array.data[0]'
      value: 
      objectReference: {fileID: 2100000, guid: c7804f9389b184047bb7359c11ce7611, type: 2}
    - target: {fileID: 3838081378513841881, guid: 9160e36211aac194fb551d49125e0f37, type: 3}
      propertyPath: m_Mesh
      value: 
      objectReference: {fileID: 10208, guid: 0000000000000000e000000000000000, type: 0}
    m_RemovedComponents:
    - {fileID: 3010232432644625748, guid: 9160e36211aac194fb551d49125e0f37, type: 3}
    m_RemovedGameObjects: []
    m_AddedGameObjects: []
    m_AddedComponents:
    - targetCorrespondingSourceObject: {fileID: 1874814602990611700, guid: 9160e36211aac194fb551d49125e0f37, type: 3}
      insertIndex: -1
      addedObject: {fileID: 3824031220283128311}
  m_SourcePrefab: {fileID: 100100000, guid: 9160e36211aac194fb551d49125e0f37, type: 3}
--- !u!1 &8855168048935505035 stripped
GameObject:
  m_CorrespondingSourceObject: {fileID: 1874814602990611700, guid: 9160e36211aac194fb551d49125e0f37, type: 3}
  m_PrefabInstance: {fileID: 6982635091512582271}
  m_PrefabAsset: {fileID: 0}
--- !u!136 &3824031220283128311
CapsuleCollider:
  m_ObjectHideFlags: 0
  m_CorrespondingSourceObject: {fileID: 0}
  m_PrefabInstance: {fileID: 0}
  m_PrefabAsset: {fileID: 0}
  m_GameObject: {fileID: 8855168048935505035}
  m_Material: {fileID: 0}
  m_IncludeLayers:
    serializedVersion: 2
    m_Bits: 0
  m_ExcludeLayers:
    serializedVersion: 2
    m_Bits: 0
  m_LayerOverridePriority: 0
  m_IsTrigger: 1
  m_ProvidesContacts: 0
  m_Enabled: 1
  serializedVersion: 2
  m_Radius: 0.5
  m_Height: 2
  m_Direction: 1
  m_Center: {x: 0, y: 0, z: 0}
