%YAML 1.1
%TAG !u! tag:unity3d.com,2011:
--- !u!114 &11400000
MonoBehaviour:
  m_ObjectHideFlags: 0
  m_CorrespondingSourceObject: {fileID: 0}
  m_PrefabInstance: {fileID: 0}
  m_PrefabAsset: {fileID: 0}
  m_GameObject: {fileID: 0}
  m_Enabled: 1
  m_EditorHideFlags: 0
  m_Script: {fileID: 11500000, guid: 42fe7dfb12b139747808779a364961a8, type: 3}
  m_Name: Aim Where Facing With Offset
  m_EditorClassIdentifier: 
  canSpawn: 1
  setSpawnerAimingOnShoot: 1
  offset: {x: 0, y: 15, z: 0}
