%YAML 1.1
%TAG !u! tag:unity3d.com,2011:
--- !u!114 &11400000
MonoBehaviour:
  m_ObjectHideFlags: 0
  m_CorrespondingSourceObject: {fileID: 0}
  m_PrefabInstance: {fileID: 0}
  m_PrefabAsset: {fileID: 0}
  m_GameObject: {fileID: 0}
  m_Enabled: 1
  m_EditorHideFlags: 0
  m_Script: {fileID: 11500000, guid: b63b1f6c1e9e2fc469b65936c92680e1, type: 3}
  m_Name: Aim At Player
  m_EditorClassIdentifier: 
  canSpawn: 0
  setSpawnerAimingOnShoot: 1
